signals.vcd
$date
	Sun Nov  6 13:42:51 2022
$end
$version
	Icarus Verilog
$end
$timescale
	1ps
$end
$scope module testbench $end
$var wire 1 ! s_single_synth $end
$var wire 1 " s_single_model $end
$var wire 8 # s_out_synth [7:0] $end
$var wire 8 $ s_out_model [7:0] $end
$var wire 1 % s_even_synth $end
$var wire 1 & s_even_model $end
$var wire 1 ' s_carry_out_synth $end
$var wire 1 ( s_carry_out_model $end
$var wire 1 ) s_ERR_synth $end
$var wire 1 * s_ERR_model $end
$var reg 8 + s_a [7:0] $end
$var reg 8 , s_b [7:0] $end
$var reg 2 - s_op [1:0] $end
$scope module alu_model $end
$var wire 8 . i_a [7:0] $end
$var wire 8 / i_b [7:0] $end
$var wire 2 0 i_op [1:0] $end
$var wire 8 1 s_out_sub [7:0] $end
$var wire 8 2 s_out_shl [7:0] $end
$var wire 1 3 s_out_comp $end
$var wire 8 4 s_out_chg [7:0] $end
$var wire 1 5 s_carry_sub $end
$var wire 1 6 s_ERR_shl $end
$var wire 1 7 s_ERR_chg $end
$var reg 1 * o_ERR $end
$var reg 1 ( o_carry $end
$var reg 1 & o_even $end
$var reg 8 8 o_out [7:0] $end
$var reg 1 " o_single $end
$var integer 32 9 zeros [31:0] $end
$scope module chg_model $end
$var wire 8 : i_a [7:0] $end
$var wire 8 ; i_b [7:0] $end
$var reg 1 7 o_ERR $end
$var reg 8 < o_out [7:0] $end
$upscope $end
$scope module comp_model $end
$var wire 8 = i_a [7:0] $end
$var wire 8 > i_b [7:0] $end
$var reg 1 3 o_out $end
$upscope $end
$scope module shl_model $end
$var wire 8 ? i_a [7:0] $end
$var wire 8 @ i_b [7:0] $end
$var reg 1 6 o_ERR $end
$var reg 8 A o_out [7:0] $end
$upscope $end
$scope module sub_model $end
$var wire 8 B i_a [7:0] $end
$var wire 8 C i_b [7:0] $end
$var reg 1 5 o_carry $end
$var reg 8 D o_out [7:0] $end
$upscope $end
$scope begin $ivl_for_loop0 $end
$var integer 32 E i [31:0] $end
$upscope $end
$upscope $end
$scope module alu_synth $end
$var wire 1 F _000_ $end
$var wire 1 G _001_ $end
$var wire 1 H _002_ $end
$var wire 1 I _003_ $end
$var wire 1 J _004_ $end
$var wire 1 K _005_ $end
$var wire 1 L _006_ $end
$var wire 1 M _007_ $end
$var wire 1 N _008_ $end
$var wire 1 O _009_ $end
$var wire 1 P _010_ $end
$var wire 1 Q _011_ $end
$var wire 1 R _012_ $end
$var wire 1 S _013_ $end
$var wire 1 T _014_ $end
$var wire 1 U _015_ $end
$var wire 1 V _016_ $end
$var wire 1 W _017_ $end
$var wire 1 X _018_ $end
$var wire 1 Y _019_ $end
$var wire 1 Z _020_ $end
$var wire 1 [ _021_ $end
$var wire 1 \ _022_ $end
$var wire 1 ] _023_ $end
$var wire 1 ^ _024_ $end
$var wire 1 _ _025_ $end
$var wire 1 ` _026_ $end
$var wire 1 a _027_ $end
$var wire 1 b _028_ $end
$var wire 1 c _029_ $end
$var wire 1 d _030_ $end
$var wire 1 e _031_ $end
$var wire 1 f _032_ $end
$var wire 1 g _033_ $end
$var wire 1 h _034_ $end
$var wire 1 i _035_ $end
$var wire 1 j _036_ $end
$var wire 1 k _037_ $end
$var wire 1 l _038_ $end
$var wire 1 m _039_ $end
$var wire 1 n _040_ $end
$var wire 1 o _041_ $end
$var wire 1 p _042_ $end
$var wire 1 q _043_ $end
$var wire 1 r _044_ $end
$var wire 1 s _045_ $end
$var wire 1 t _046_ $end
$var wire 1 u _047_ $end
$var wire 1 v _048_ $end
$var wire 1 w _049_ $end
$var wire 1 x _050_ $end
$var wire 1 y _051_ $end
$var wire 1 z _052_ $end
$var wire 1 { _053_ $end
$var wire 1 | _054_ $end
$var wire 1 } _055_ $end
$var wire 1 ~ _056_ $end
$var wire 1 !" _057_ $end
$var wire 1 "" _058_ $end
$var wire 1 #" _059_ $end
$var wire 1 $" _060_ $end
$var wire 1 %" _061_ $end
$var wire 1 &" _062_ $end
$var wire 1 '" _063_ $end
$var wire 1 (" _064_ $end
$var wire 1 )" _065_ $end
$var wire 1 *" _066_ $end
$var wire 1 +" _067_ $end
$var wire 1 ," _068_ $end
$var wire 1 -" _069_ $end
$var wire 1 ." _070_ $end
$var wire 1 /" _071_ $end
$var wire 1 0" _072_ $end
$var wire 1 1" _073_ $end
$var wire 8 2" i_a [7:0] $end
$var wire 8 3" i_b [7:0] $end
$var wire 2 4" i_op [1:0] $end
$var wire 1 ) o_ERR $end
$var wire 1 ' o_carry $end
$var wire 1 % o_even $end
$var wire 1 ! o_single $end
$var wire 32 5" zeros [31:0] $end
$var wire 8 6" s_out_sub [7:0] $end
$var wire 8 7" s_out_shl [7:0] $end
$var wire 1 8" s_out_comp $end
$var wire 8 9" s_out_chg [7:0] $end
$var wire 1 :" s_carry_sub $end
$var wire 1 ;" s_ERR_shl $end
$var wire 1 <" s_ERR_chg $end
$var wire 8 =" o_out [7:0] $end
$scope module chg_model $end
$var wire 1 >" _000_ $end
$var wire 1 ?" _001_ $end
$var wire 1 @" _002_ $end
$var wire 1 A" _003_ $end
$var wire 1 B" _004_ $end
$var wire 1 C" _005_ $end
$var wire 1 D" _006_ $end
$var wire 1 E" _007_ $end
$var wire 1 F" _008_ $end
$var wire 1 G" _009_ $end
$var wire 1 H" _010_ $end
$var wire 1 I" _011_ $end
$var wire 1 J" _012_ $end
$var wire 1 K" _013_ $end
$var wire 1 L" _014_ $end
$var wire 1 M" _015_ $end
$var wire 1 N" _016_ $end
$var wire 1 O" _017_ $end
$var wire 1 P" _018_ $end
$var wire 1 Q" _019_ $end
$var wire 1 R" _020_ $end
$var wire 1 S" _021_ $end
$var wire 1 T" _022_ $end
$var wire 1 U" _023_ $end
$var wire 1 V" _024_ $end
$var wire 1 W" _025_ $end
$var wire 1 X" _026_ $end
$var wire 1 Y" _027_ $end
$var wire 1 Z" _028_ $end
$var wire 1 [" _029_ $end
$var wire 1 \" _030_ $end
$var wire 1 ]" _031_ $end
$var wire 1 ^" _032_ $end
$var wire 1 _" _033_ $end
$var wire 1 `" _034_ $end
$var wire 1 a" _035_ $end
$var wire 1 b" _036_ $end
$var wire 1 c" _037_ $end
$var wire 1 d" _038_ $end
$var wire 1 e" _039_ $end
$var wire 1 f" _040_ $end
$var wire 1 g" _041_ $end
$var wire 1 h" _042_ $end
$var wire 1 i" _043_ $end
$var wire 1 j" _044_ $end
$var wire 1 k" _045_ $end
$var wire 1 l" _046_ $end
$var wire 1 m" _047_ $end
$var wire 1 n" _048_ $end
$var wire 1 o" _049_ $end
$var wire 1 p" _050_ $end
$var wire 1 q" _051_ $end
$var wire 1 r" _052_ $end
$var wire 1 s" _053_ $end
$var wire 1 t" _054_ $end
$var wire 1 u" _055_ $end
$var wire 1 v" _056_ $end
$var wire 1 w" _057_ $end
$var wire 1 x" _058_ $end
$var wire 1 y" _059_ $end
$var wire 1 z" _060_ $end
$var wire 1 {" _061_ $end
$var wire 1 |" _062_ $end
$var wire 1 }" _063_ $end
$var wire 1 ~" _064_ $end
$var wire 1 !# _065_ $end
$var wire 1 "# _066_ $end
$var wire 1 ## _067_ $end
$var wire 1 $# _068_ $end
$var wire 1 %# _069_ $end
$var wire 1 &# _070_ $end
$var wire 1 '# _071_ $end
$var wire 1 (# _072_ $end
$var wire 1 )# _073_ $end
$var wire 1 *# _074_ $end
$var wire 8 +# i_a [7:0] $end
$var wire 8 ,# i_b [7:0] $end
$var wire 1 <" o_ERR $end
$var wire 8 -# o_out [7:0] $end
$upscope $end
$scope module comp_model $end
$var wire 1 .# _000_ $end
$var wire 1 /# _001_ $end
$var wire 1 0# _002_ $end
$var wire 1 1# _003_ $end
$var wire 1 2# _004_ $end
$var wire 1 3# _005_ $end
$var wire 1 4# _006_ $end
$var wire 1 5# _007_ $end
$var wire 1 6# _008_ $end
$var wire 1 7# _009_ $end
$var wire 1 8# _010_ $end
$var wire 1 9# _011_ $end
$var wire 1 :# _012_ $end
$var wire 1 ;# _013_ $end
$var wire 1 <# _014_ $end
$var wire 1 =# _015_ $end
$var wire 1 ># _016_ $end
$var wire 1 ?# _017_ $end
$var wire 1 @# _018_ $end
$var wire 1 A# _019_ $end
$var wire 1 B# _020_ $end
$var wire 1 C# _021_ $end
$var wire 1 D# _022_ $end
$var wire 1 E# _023_ $end
$var wire 1 F# _024_ $end
$var wire 1 G# _025_ $end
$var wire 1 H# _026_ $end
$var wire 1 I# _027_ $end
$var wire 1 J# _028_ $end
$var wire 1 K# _029_ $end
$var wire 1 L# _030_ $end
$var wire 1 M# _031_ $end
$var wire 1 N# _032_ $end
$var wire 1 O# _033_ $end
$var wire 1 P# _034_ $end
$var wire 1 Q# _035_ $end
$var wire 1 R# _036_ $end
$var wire 1 S# _037_ $end
$var wire 1 T# _038_ $end
$var wire 1 U# _039_ $end
$var wire 1 V# _040_ $end
$var wire 1 W# _041_ $end
$var wire 1 X# _042_ $end
$var wire 1 Y# _043_ $end
$var wire 1 Z# _044_ $end
$var wire 1 [# _045_ $end
$var wire 1 \# _046_ $end
$var wire 1 ]# _047_ $end
$var wire 1 ^# _048_ $end
$var wire 1 _# _049_ $end
$var wire 1 `# _050_ $end
$var wire 1 a# _051_ $end
$var wire 1 b# _052_ $end
$var wire 1 c# _053_ $end
$var wire 1 d# _054_ $end
$var wire 1 e# _055_ $end
$var wire 1 f# _056_ $end
$var wire 1 g# _057_ $end
$var wire 1 h# _058_ $end
$var wire 1 i# _059_ $end
$var wire 1 j# _060_ $end
$var wire 1 k# _061_ $end
$var wire 1 l# _062_ $end
$var wire 1 m# _063_ $end
$var wire 1 n# _064_ $end
$var wire 1 o# _065_ $end
$var wire 1 p# _066_ $end
$var wire 1 q# _067_ $end
$var wire 1 r# _068_ $end
$var wire 1 s# _069_ $end
$var wire 1 t# _070_ $end
$var wire 1 u# _071_ $end
$var wire 1 v# _072_ $end
$var wire 1 w# _073_ $end
$var wire 1 x# _074_ $end
$var wire 1 y# _075_ $end
$var wire 1 z# _076_ $end
$var wire 1 {# _077_ $end
$var wire 1 |# _078_ $end
$var wire 1 }# _079_ $end
$var wire 8 ~# i_a [7:0] $end
$var wire 8 !$ i_b [7:0] $end
$var wire 1 8" o_out $end
$upscope $end
$scope module shl_model $end
$var wire 1 "$ _000_ $end
$var wire 1 #$ _001_ $end
$var wire 1 $$ _002_ $end
$var wire 1 %$ _003_ $end
$var wire 1 &$ _004_ $end
$var wire 1 '$ _005_ $end
$var wire 1 ($ _006_ $end
$var wire 1 )$ _007_ $end
$var wire 1 *$ _008_ $end
$var wire 1 +$ _009_ $end
$var wire 1 ,$ _010_ $end
$var wire 1 -$ _011_ $end
$var wire 1 .$ _012_ $end
$var wire 1 /$ _013_ $end
$var wire 1 0$ _014_ $end
$var wire 1 1$ _015_ $end
$var wire 1 2$ _016_ $end
$var wire 1 3$ _017_ $end
$var wire 1 4$ _018_ $end
$var wire 1 5$ _019_ $end
$var wire 1 6$ _020_ $end
$var wire 1 7$ _021_ $end
$var wire 1 8$ _022_ $end
$var wire 1 9$ _023_ $end
$var wire 1 :$ _024_ $end
$var wire 1 ;$ _025_ $end
$var wire 1 <$ _026_ $end
$var wire 1 =$ _027_ $end
$var wire 1 >$ _028_ $end
$var wire 1 ?$ _029_ $end
$var wire 1 @$ _030_ $end
$var wire 1 A$ _031_ $end
$var wire 1 B$ _032_ $end
$var wire 1 C$ _033_ $end
$var wire 1 D$ _034_ $end
$var wire 1 E$ _035_ $end
$var wire 1 F$ _036_ $end
$var wire 1 G$ _037_ $end
$var wire 1 H$ _038_ $end
$var wire 1 I$ _039_ $end
$var wire 1 J$ _040_ $end
$var wire 1 K$ _041_ $end
$var wire 1 L$ _042_ $end
$var wire 1 M$ _043_ $end
$var wire 1 N$ _044_ $end
$var wire 1 O$ _045_ $end
$var wire 1 P$ _046_ $end
$var wire 1 Q$ _047_ $end
$var wire 1 R$ _048_ $end
$var wire 1 S$ _049_ $end
$var wire 1 T$ _050_ $end
$var wire 1 U$ _051_ $end
$var wire 1 V$ _052_ $end
$var wire 1 W$ _053_ $end
$var wire 1 X$ _054_ $end
$var wire 1 Y$ _055_ $end
$var wire 1 Z$ _056_ $end
$var wire 1 [$ _057_ $end
$var wire 1 \$ _058_ $end
$var wire 1 ]$ _059_ $end
$var wire 1 ^$ _060_ $end
$var wire 1 _$ _061_ $end
$var wire 1 `$ _062_ $end
$var wire 1 a$ _063_ $end
$var wire 1 b$ _064_ $end
$var wire 1 c$ _065_ $end
$var wire 1 d$ _066_ $end
$var wire 1 e$ _067_ $end
$var wire 1 f$ _068_ $end
$var wire 1 g$ _069_ $end
$var wire 1 h$ _070_ $end
$var wire 1 i$ _071_ $end
$var wire 8 j$ i_a [7:0] $end
$var wire 8 k$ i_b [7:0] $end
$var wire 8 l$ o_out [7:0] $end
$var wire 1 ;" o_ERR $end
$upscope $end
$scope module sub_model $end
$var wire 1 m$ _00_ $end
$var wire 1 n$ _01_ $end
$var wire 1 o$ _02_ $end
$var wire 1 p$ _03_ $end
$var wire 1 q$ _04_ $end
$var wire 1 r$ _05_ $end
$var wire 1 s$ _06_ $end
$var wire 1 t$ _07_ $end
$var wire 1 u$ _08_ $end
$var wire 1 v$ _09_ $end
$var wire 1 w$ _10_ $end
$var wire 1 x$ _11_ $end
$var wire 1 y$ _12_ $end
$var wire 1 z$ _13_ $end
$var wire 1 {$ _14_ $end
$var wire 1 |$ _15_ $end
$var wire 1 }$ _16_ $end
$var wire 1 ~$ _17_ $end
$var wire 1 !% _18_ $end
$var wire 1 "% _19_ $end
$var wire 1 #% _20_ $end
$var wire 1 $% _21_ $end
$var wire 1 %% _22_ $end
$var wire 1 &% _23_ $end
$var wire 1 '% _24_ $end
$var wire 1 (% _25_ $end
$var wire 1 )% _26_ $end
$var wire 1 *% _27_ $end
$var wire 1 +% _28_ $end
$var wire 1 ,% _29_ $end
$var wire 1 -% _30_ $end
$var wire 1 .% _31_ $end
$var wire 1 /% _32_ $end
$var wire 1 0% _33_ $end
$var wire 1 1% _34_ $end
$var wire 1 2% _35_ $end
$var wire 1 3% _36_ $end
$var wire 8 4% i_a [7:0] $end
$var wire 8 5% i_b [7:0] $end
$var wire 1 :" o_carry $end
$var wire 8 6% o_out [7:0] $end
$upscope $end
$upscope $end
$upscope $end
$enddefinitions $end
#0
$dumpvars
bx 6%
bx 5%
bx 4%
x3%
x2%
x1%
x0%
x/%
x.%
x-%
x,%
x+%
x*%
x)%
x(%
x'%
x&%
x%%
x$%
x#%
x"%
x!%
x~$
x}$
x|$
x{$
xz$
xy$
xx$
xw$
xv$
xu$
xt$
xs$
xr$
xq$
xp$
xo$
xn$
xm$
bx l$
bx k$
bx j$
xi$
xh$
xg$
xf$
xe$
xd$
xc$
xb$
xa$
x`$
x_$
x^$
x]$
x\$
x[$
xZ$
xY$
xX$
xW$
xV$
xU$
xT$
xS$
xR$
xQ$
xP$
xO$
xN$
xM$
xL$
xK$
xJ$
xI$
xH$
xG$
xF$
xE$
xD$
xC$
xB$
xA$
x@$
x?$
x>$
x=$
x<$
x;$
x:$
x9$
x8$
x7$
x6$
x5$
x4$
x3$
x2$
x1$
x0$
x/$
x.$
x-$
x,$
x+$
x*$
x)$
x($
x'$
x&$
x%$
x$$
x#$
x"$
bx !$
bx ~#
x}#
x|#
x{#
xz#
xy#
xx#
xw#
xv#
xu#
xt#
xs#
xr#
xq#
xp#
xo#
xn#
xm#
xl#
xk#
xj#
xi#
xh#
xg#
xf#
xe#
xd#
xc#
xb#
xa#
x`#
x_#
x^#
x]#
x\#
x[#
xZ#
xY#
xX#
xW#
xV#
xU#
xT#
xS#
xR#
xQ#
xP#
xO#
xN#
xM#
xL#
xK#
xJ#
xI#
xH#
xG#
xF#
xE#
xD#
xC#
xB#
xA#
x@#
x?#
x>#
x=#
x<#
x;#
x:#
x9#
x8#
x7#
x6#
x5#
x4#
x3#
x2#
x1#
x0#
x/#
x.#
bx -#
bx ,#
bx +#
x*#
x)#
x(#
x'#
x&#
x%#
x$#
x##
x"#
x!#
x~"
x}"
x|"
x{"
xz"
xy"
xx"
xw"
xv"
xu"
xt"
xs"
xr"
xq"
xp"
xo"
xn"
xm"
xl"
xk"
xj"
xi"
xh"
xg"
xf"
xe"
xd"
xc"
xb"
xa"
x`"
x_"
x^"
x]"
x\"
x["
xZ"
xY"
xX"
xW"
xV"
xU"
xT"
xS"
xR"
xQ"
xP"
xO"
xN"
xM"
xL"
xK"
xJ"
xI"
xH"
xG"
xF"
xE"
xD"
xC"
xB"
xA"
x@"
x?"
x>"
bx ="
x<"
x;"
x:"
bx 9"
x8"
bx 7"
bx 6"
b0zzzz 5"
b0 4"
bx 3"
bx 2"
x1"
x0"
x/"
x."
x-"
x,"
0+"
0*"
x)"
x("
0'"
0&"
x%"
x$"
0#"
x""
x!"
1~
x}
0|
1{
xz
1y
xx
0w
xv
xu
1t
xs
xr
xq
1p
0o
1n
0m
0l
1k
0j
0i
1h
0g
0f
0e
xd
xc
xb
0a
x`
1_
1^
0]
0\
x[
xZ
xY
xX
xW
xV
xU
xT
0S
0R
xQ
xP
xO
xN
xM
xL
xK
xJ
xI
xH
xG
xF
b1000 E
bx D
bx C
bx B
bx A
bx @
bx ?
bx >
bx =
bx <
bx ;
bx :
b0 9
bx 8
07
06
x5
bx 4
03
bx 2
bx 1
b0 0
bx /
bx .
b0 -
bx ,
bx +
0*
0)
x(
x'
1&
x%
bx $
bx #
0"
x!
$end
#1000
1."
1%"
0)"
0-"
0U
b0x #
b0x ="
1s
0("
0,"
0T
0'
0x
0}
0$"
1r
0b
0k
0v
0z
x{
0""
1q
0_
xa
1l
b1000 9
b1000 E
1&
0(
b0 $
b0 8
b1 -
b1 0
b1 4"
#2000
x!
x[
xZ
xY
xX
xW
x."
x0"
x/"
xs
x%"
xj
xp
x)
xt
xy
x~
xi
xo
x'"
x+"
xS
x]
bx #
bx ="
0d
0h
xb
1g
xz
1{
xc
1v
1x
1}
1""
1$"
0^
1_
0a
1u
xw
1|
1!"
x#"
b1000 E
b0 9
1&
bx $
bx 8
b10 -
b10 0
b10 4"
#3000
1%
0!
0Y
0V
0[
0X
1P
0Q
0Z
0H
0W
1O
0N
00"
0/"
1L
0M
1J
1G
1."
11"
1s
0c
0j
0w
0#"
08"
0A$
1{#
0}#
0?$
0R$
0[$
0d$
0%$
1t#
0s#
0>$
0Q$
0Z$
0c$
0$$
0:"
0i"
1j"
1<"
0c"
0l"
0s"
0z"
0##
0(#
0@"
0E"
0f"
0b"
1q#
0r#
0h#
0=$
0P$
0Y$
0b$
0#$
02%
1j#
1F
0I
1K
1%"
1x"
1h"
1&#
1C"
0X"
0d"
0`"
b0 9"
b0 -#
0y#
0b#
1X#
1o#
0w#
1J#
0i#
0c#
0z#
06$
0B$
0O$
0X$
0a$
0"$
01%
0,%
0'%
1g#
1`
1p
1r
1w"
1g"
1%#
1B"
0V"
0\"
1_"
1~"
1p"
1*#
0r"
0"#
0?"
0x#
0_#
1V#
1f#
1O#
1n#
1C#
0v#
0I#
0p#
0W#
0W$
0i$
0H$
04$
0/$
0F$
00%
0+%
0&%
1d#
0i
0o
0'"
0+"
0S
0x
0}
0|
0$"
1n
0)"
0-"
0U
b0 #
b0 ="
1u"
0Y"
1e"
1|"
1]"
1S"
0U"
1W"
1["
1n"
0o"
0v"
0}"
0$#
0)#
0A"
0u#
0]#
1S#
1N#
1F#
1@#
1l#
0D#
0H#
0m#
0P#
0U#
0e#
0U$
0g$
02$
0:$
1@$
1G$
1K$
1T$
1]$
1f$
13$
0,$
1.$
09$
0E$
0J$
0S$
0\$
0e$
1)
0/%
0*%
0%%
1a"
1q"
1!#
1>"
0|#
1a#
1`#
01$
08$
b0 7"
b0 l$
0D$
1N$
1`$
1$%
1)%
1.%
0b
0g
0v
0z
0{
0""
0f
0m
0&"
0*"
0R
1\
1t
1y
1~
1F"
0G"
1H"
1I"
0R"
1T"
1Z"
0^"
0m"
0t"
0{"
0/#
11#
13#
15#
17#
19#
1;#
1>#
0?#
0A#
1E#
0G#
0K#
0M#
1R#
0T#
0Y#
1\#
0k#
0&$
0'$
1($
1)$
1*$
1+$
0-$
17$
1<$
1C$
0I$
0]
1u$
1v$
0w$
1x$
0z$
1{$
0}$
1~$
0"%
1J"
0K"
1L"
0M"
1N"
0O"
1P"
0Q"
1k"
1y"
1'#
1D"
0.#
10#
02#
04#
16#
08#
1:#
1<#
0=#
1B#
1L#
0Q#
1Z#
0[#
1^#
00$
15$
0;$
0L$
1M$
0V$
1^$
1_$
1h$
1m$
0n$
1o$
0p$
1q$
0r$
1s$
0t$
b101001 6"
b101001 6%
0y$
0|$
0!%
1#%
1(%
1-%
03%
b1000 9
b0 $
b0 8
1*
0_
0a
1e
1h
1;"
05
b101001 1
b101001 D
b0 2
b0 A
16
b0 4
b0 <
17
b1000 E
1&
b10000001 ,
b10000001 /
b10000001 ;
b10000001 >
b10000001 @
b10000001 C
b10000001 3"
b10000001 ,#
b10000001 !$
b10000001 k$
b10000001 5%
b10101010 +
b10101010 .
b10101010 :
b10101010 =
b10101010 ?
b10101010 B
b10101010 2"
b10101010 +#
b10101010 ~#
b10101010 j$
b10101010 4%
b11 -
b11 0
b11 4"
#4000
0Y
0X
0W
0%
00"
0/"
0N
1V
1I
0J
1O
0M
1Q
11"
1H
0G
1L
0%"
0."
1s
1r
b10101000 #
b10101000 ="
1n
1x
1$"
1-"
0m
1w
1#"
1*"
1A$
0)
1?$
1R$
1d$
0\
b10101000 9"
b10101000 -#
1i"
0j"
1>$
1Q$
1c$
0<"
1c"
0l"
1s"
1z"
1##
1(#
1@"
1E"
1f"
0h"
1=$
1P$
1b$
1X"
1d"
0g"
16$
1B$
1O$
1a$
1V"
0e"
1/$
1U"
0W"
b1010101 7"
b1010101 l$
1,$
b10101001 6"
b10101001 6%
b1000 E
b101 9
0&
b10101000 $
b10101000 8
0*
0T"
1&$
0+$
0v$
13%
07
b10101000 4
b10101000 <
b1010101 2
b1010101 A
06
b10101001 1
b10101001 D
0;"
b1 ,
b1 /
b1 ;
b1 >
b1 @
b1 C
b1 3"
b1 ,#
b1 !$
b1 k$
b1 5%
#5000
0Z
0Y
0P
0%
0I
0X
0O
1N
1V
0H
1W
0L
1M
1Q
10"
1/"
1J
1."
1G
01"
b101010 #
b101010 ="
0s
0-"
0r
0*"
0n
1m
0E"
b101010 9"
b101010 -#
0C"
1l"
1b#
0R$
0d$
0`
0B"
0i"
1j"
1_#
0O#
0a#
0A$
b1 7"
b1 l$
0Q$
0c$
0e$
1'%
0f"
0u"
0]"
0|"
1h"
0v"
0$#
1A"
1]#
0N#
1P#
0`#
0@$
0G$
0T$
0f$
03$
0H$
0\$
0Z$
0$$
1&%
1%%
b10100011 6"
b10100011 6%
b1000 E
b101 9
b101010 $
b101010 8
0F"
0H"
1^"
1g"
1t"
1{"
01#
05#
1M#
0^#
0($
0)$
1F$
1I$
1Y$
1#$
1!%
1"%
0#%
b101010 4
b101010 <
b1 2
b1 A
b10100011 1
b10100011 D
b111 ,
b111 /
b111 ;
b111 >
b111 @
b111 C
b111 3"
b111 ,#
b111 !$
b111 k$
b111 5%
#6000
0%
1V
1O
0N
1Q
1L
0M
1P
0."
1I
0J
0W
1H
0G
0F
1-"
b10100010 #
b10100010 ="
1*"
0x
0w
1E"
b10100010 9"
b10100010 -#
b1010001 7"
b1010001 l$
1C"
0z"
1R$
1d$
1v"
1B"
0x"
1O#
1Q$
1Z$
1c$
1$$
1]"
1|"
0w"
0A"
1N#
0P#
13$
b10100111 6"
b10100111 6%
b1000 E
b101 9
b10100010 $
b10100010 8
1H"
0^"
0{"
15#
0M#
1)$
0I$
0!%
b10100010 4
b10100010 <
b1010001 2
b1010001 A
b10100111 1
b10100111 D
b11 ,
b11 /
b11 ;
b11 >
b11 @
b11 C
b11 3"
b11 ,#
b11 !$
b11 k$
b11 5%
#7000
1!
1[
1Z
1Y
1X
1s
1W
1L
0M
1x
1r
1F
1G
0H
0%
0Q
0J
1w
1n
01"
10"
1V
0O
1N
0m
b11111101 #
b11111101 ="
1}
1[$
1%$
1z"
1j
1U
1)"
1|
1H$
1x"
0l"
0b#
b11111111 7"
b11111111 l$
1f
1R
1&"
1{
1:$
1w"
1i"
0j"
0_#
1a#
1A$
19$
1E$
1X$
1"$
0'%
1f"
1u"
0h"
0v"
0]#
1`#
1@$
1G$
1T$
1f$
1Z$
1$$
0%%
b11111101 9"
b11111101 -#
0R#
0E#
0>#
0x#
18$
1D$
1W$
1i$
0u$
0x$
0{$
0~$
10%
1+%
1F"
0g"
0t"
11#
1^#
1($
1F$
1Y$
1#$
0"%
1#%
1"
b1000 E
b1 9
b11111101 $
b11111101 8
0J"
0L"
0N"
0P"
1b"
1r"
1"#
1?"
00#
06#
0:#
0<#
1=#
1Q#
1u#
10$
1;$
1V$
1g$
0m$
0o$
0q$
0s$
b11111110 6"
b11111110 6%
1y$
1|$
1!%
b11111101 4
b11111101 <
b11111111 2
b11111111 A
b11111110 1
b11111110 D
b1 ,
b1 /
b1 ;
b1 >
b1 @
b1 C
b1 3"
b1 ,#
b1 !$
b1 k$
b1 5%
b11111111 +
b11111111 .
b11111111 :
b11111111 =
b11111111 ?
b11111111 B
b11111111 2"
b11111111 +#
b11111111 ~#
b11111111 j$
b11111111 4%
