signals.vcd
$date
	Sat Nov  5 22:29:23 2022
$end
$version
	Icarus Verilog
$end
$timescale
	1ps
$end
$scope module testbench $end
$var wire 8 ! s_out_synth [7:0] $end
$var wire 8 " s_out_model [7:0] $end
$var wire 1 # s_carry_out_synth $end
$var wire 1 $ s_carry_out_model $end
$var wire 1 % s_ERR_synth $end
$var wire 1 & s_ERR_model $end
$var reg 8 ' s_a [7:0] $end
$var reg 8 ( s_b [7:0] $end
$var reg 1 ) s_carry_in $end
$var reg 2 * s_op [1:0] $end
$scope module sub_model $end
$var wire 8 + i_a [7:0] $end
$var wire 8 , i_b [7:0] $end
$var wire 1 ) i_carry $end
$var wire 2 - i_op [1:0] $end
$var wire 8 . s_out_sub [7:0] $end
$var wire 8 / s_out_shl [7:0] $end
$var wire 1 0 s_out_comp $end
$var wire 1 1 s_carry_sub $end
$var wire 1 2 s_ERR $end
$var reg 1 & o_ERR $end
$var reg 1 $ o_carry $end
$var reg 8 3 o_out [7:0] $end
$scope module comp_model $end
$var wire 8 4 i_a [7:0] $end
$var wire 8 5 i_b [7:0] $end
$var reg 1 0 o_out $end
$upscope $end
$scope module shl_model $end
$var wire 8 6 i_a [7:0] $end
$var wire 8 7 i_b [7:0] $end
$var reg 1 2 o_ERR $end
$var reg 8 8 o_out [7:0] $end
$upscope $end
$scope module sub_model $end
$var wire 8 9 i_a [7:0] $end
$var wire 8 : i_b [7:0] $end
$var wire 1 ) i_carry $end
$var reg 1 1 o_carry $end
$var reg 8 ; o_out [7:0] $end
$upscope $end
$upscope $end
$scope module sub_synth $end
$var wire 1 < _00_ $end
$var wire 1 = _01_ $end
$var wire 1 > _02_ $end
$var wire 1 ? _03_ $end
$var wire 1 @ _04_ $end
$var wire 1 A _05_ $end
$var wire 1 B _06_ $end
$var wire 1 C _07_ $end
$var wire 1 D _08_ $end
$var wire 1 E _09_ $end
$var wire 1 F _10_ $end
$var wire 1 G _11_ $end
$var wire 1 H _12_ $end
$var wire 1 I _13_ $end
$var wire 1 J _14_ $end
$var wire 1 K _15_ $end
$var wire 1 L _16_ $end
$var wire 1 M _17_ $end
$var wire 1 N _18_ $end
$var wire 1 O _19_ $end
$var wire 1 P _20_ $end
$var wire 1 Q _21_ $end
$var wire 1 R _22_ $end
$var wire 8 S i_a [7:0] $end
$var wire 8 T i_b [7:0] $end
$var wire 1 ) i_carry $end
$var wire 2 U i_op [1:0] $end
$var wire 8 V s_out_sub [7:0] $end
$var wire 8 W s_out_shl [7:0] $end
$var wire 1 X s_out_comp $end
$var wire 8 Y o_out [7:0] $end
$var wire 1 # o_carry $end
$var wire 1 % o_ERR $end
$scope module comp_model $end
$var wire 1 Z _000_ $end
$var wire 1 [ _001_ $end
$var wire 1 \ _002_ $end
$var wire 1 ] _003_ $end
$var wire 1 ^ _004_ $end
$var wire 1 _ _005_ $end
$var wire 1 ` _006_ $end
$var wire 1 a _007_ $end
$var wire 1 b _008_ $end
$var wire 1 c _009_ $end
$var wire 1 d _010_ $end
$var wire 1 e _011_ $end
$var wire 1 f _012_ $end
$var wire 1 g _013_ $end
$var wire 1 h _014_ $end
$var wire 1 i _015_ $end
$var wire 1 j _016_ $end
$var wire 1 k _017_ $end
$var wire 1 l _018_ $end
$var wire 1 m _019_ $end
$var wire 1 n _020_ $end
$var wire 1 o _021_ $end
$var wire 1 p _022_ $end
$var wire 1 q _023_ $end
$var wire 1 r _024_ $end
$var wire 1 s _025_ $end
$var wire 1 t _026_ $end
$var wire 1 u _027_ $end
$var wire 1 v _028_ $end
$var wire 1 w _029_ $end
$var wire 1 x _030_ $end
$var wire 1 y _031_ $end
$var wire 1 z _032_ $end
$var wire 1 { _033_ $end
$var wire 1 | _034_ $end
$var wire 1 } _035_ $end
$var wire 1 ~ _036_ $end
$var wire 1 !" _037_ $end
$var wire 1 "" _038_ $end
$var wire 1 #" _039_ $end
$var wire 1 $" _040_ $end
$var wire 1 %" _041_ $end
$var wire 1 &" _042_ $end
$var wire 1 '" _043_ $end
$var wire 1 (" _044_ $end
$var wire 1 )" _045_ $end
$var wire 1 *" _046_ $end
$var wire 1 +" _047_ $end
$var wire 1 ," _048_ $end
$var wire 1 -" _049_ $end
$var wire 1 ." _050_ $end
$var wire 1 /" _051_ $end
$var wire 1 0" _052_ $end
$var wire 1 1" _053_ $end
$var wire 1 2" _054_ $end
$var wire 1 3" _055_ $end
$var wire 1 4" _056_ $end
$var wire 1 5" _057_ $end
$var wire 1 6" _058_ $end
$var wire 1 7" _059_ $end
$var wire 1 8" _060_ $end
$var wire 1 9" _061_ $end
$var wire 1 :" _062_ $end
$var wire 1 ;" _063_ $end
$var wire 1 <" _064_ $end
$var wire 1 =" _065_ $end
$var wire 1 >" _066_ $end
$var wire 1 ?" _067_ $end
$var wire 1 @" _068_ $end
$var wire 1 A" _069_ $end
$var wire 1 B" _070_ $end
$var wire 1 C" _071_ $end
$var wire 1 D" _072_ $end
$var wire 1 E" _073_ $end
$var wire 1 F" _074_ $end
$var wire 1 G" _075_ $end
$var wire 1 H" _076_ $end
$var wire 1 I" _077_ $end
$var wire 1 J" _078_ $end
$var wire 1 K" _079_ $end
$var wire 8 L" i_a [7:0] $end
$var wire 8 M" i_b [7:0] $end
$var wire 1 X o_out $end
$upscope $end
$scope module shl_model $end
$var wire 1 N" _000_ $end
$var wire 1 O" _001_ $end
$var wire 1 P" _002_ $end
$var wire 1 Q" _003_ $end
$var wire 1 R" _004_ $end
$var wire 1 S" _005_ $end
$var wire 1 T" _006_ $end
$var wire 1 U" _007_ $end
$var wire 1 V" _008_ $end
$var wire 1 W" _009_ $end
$var wire 1 X" _010_ $end
$var wire 1 Y" _011_ $end
$var wire 1 Z" _012_ $end
$var wire 1 [" _013_ $end
$var wire 1 \" _014_ $end
$var wire 1 ]" _015_ $end
$var wire 1 ^" _016_ $end
$var wire 1 _" _017_ $end
$var wire 1 `" _018_ $end
$var wire 1 a" _019_ $end
$var wire 1 b" _020_ $end
$var wire 1 c" _021_ $end
$var wire 1 d" _022_ $end
$var wire 1 e" _023_ $end
$var wire 1 f" _024_ $end
$var wire 1 g" _025_ $end
$var wire 1 h" _026_ $end
$var wire 1 i" _027_ $end
$var wire 1 j" _028_ $end
$var wire 1 k" _029_ $end
$var wire 1 l" _030_ $end
$var wire 1 m" _031_ $end
$var wire 1 n" _032_ $end
$var wire 1 o" _033_ $end
$var wire 1 p" _034_ $end
$var wire 1 q" _035_ $end
$var wire 1 r" _036_ $end
$var wire 1 s" _037_ $end
$var wire 1 t" _038_ $end
$var wire 1 u" _039_ $end
$var wire 1 v" _040_ $end
$var wire 1 w" _041_ $end
$var wire 1 x" _042_ $end
$var wire 1 y" _043_ $end
$var wire 1 z" _044_ $end
$var wire 1 {" _045_ $end
$var wire 1 |" _046_ $end
$var wire 1 }" _047_ $end
$var wire 1 ~" _048_ $end
$var wire 1 !# _049_ $end
$var wire 1 "# _050_ $end
$var wire 1 ## _051_ $end
$var wire 1 $# _052_ $end
$var wire 1 %# _053_ $end
$var wire 1 &# _054_ $end
$var wire 1 '# _055_ $end
$var wire 1 (# _056_ $end
$var wire 1 )# _057_ $end
$var wire 1 *# _058_ $end
$var wire 1 +# _059_ $end
$var wire 1 ,# _060_ $end
$var wire 1 -# _061_ $end
$var wire 1 .# _062_ $end
$var wire 1 /# _063_ $end
$var wire 1 0# _064_ $end
$var wire 1 1# _065_ $end
$var wire 1 2# _066_ $end
$var wire 1 3# _067_ $end
$var wire 1 4# _068_ $end
$var wire 1 5# _069_ $end
$var wire 1 6# _070_ $end
$var wire 1 7# _071_ $end
$var wire 8 8# i_a [7:0] $end
$var wire 8 9# i_b [7:0] $end
$var wire 8 :# o_out [7:0] $end
$var wire 1 % o_ERR $end
$upscope $end
$scope module sub_model $end
$var wire 1 ;# _000_ $end
$var wire 1 <# _001_ $end
$var wire 1 =# _002_ $end
$var wire 1 ># _003_ $end
$var wire 1 ?# _004_ $end
$var wire 1 @# _005_ $end
$var wire 1 A# _006_ $end
$var wire 1 B# _007_ $end
$var wire 1 C# _008_ $end
$var wire 1 D# _009_ $end
$var wire 1 E# _010_ $end
$var wire 1 F# _011_ $end
$var wire 1 G# _012_ $end
$var wire 1 H# _013_ $end
$var wire 1 I# _014_ $end
$var wire 1 J# _015_ $end
$var wire 1 K# _016_ $end
$var wire 1 L# _017_ $end
$var wire 1 M# _018_ $end
$var wire 1 N# _019_ $end
$var wire 1 O# _020_ $end
$var wire 1 P# _021_ $end
$var wire 1 Q# _022_ $end
$var wire 1 R# _023_ $end
$var wire 1 S# _024_ $end
$var wire 1 T# _025_ $end
$var wire 1 U# _026_ $end
$var wire 1 V# _027_ $end
$var wire 1 W# _028_ $end
$var wire 1 X# _029_ $end
$var wire 1 Y# _030_ $end
$var wire 1 Z# _031_ $end
$var wire 1 [# _032_ $end
$var wire 1 \# _033_ $end
$var wire 1 ]# _034_ $end
$var wire 1 ^# _035_ $end
$var wire 1 _# _036_ $end
$var wire 1 `# _037_ $end
$var wire 1 a# _038_ $end
$var wire 1 b# _039_ $end
$var wire 1 c# _040_ $end
$var wire 1 d# _041_ $end
$var wire 1 e# _042_ $end
$var wire 1 f# _043_ $end
$var wire 1 g# _044_ $end
$var wire 1 h# _045_ $end
$var wire 1 i# _046_ $end
$var wire 1 j# _047_ $end
$var wire 1 k# _048_ $end
$var wire 1 l# _049_ $end
$var wire 1 m# _050_ $end
$var wire 1 n# _051_ $end
$var wire 1 o# _052_ $end
$var wire 1 p# _053_ $end
$var wire 1 q# _054_ $end
$var wire 1 r# _055_ $end
$var wire 1 s# _056_ $end
$var wire 1 t# _057_ $end
$var wire 8 u# i_a [7:0] $end
$var wire 8 v# i_b [7:0] $end
$var wire 1 ) i_carry $end
$var wire 1 # o_carry $end
$var wire 8 w# o_out [7:0] $end
$upscope $end
$upscope $end
$upscope $end
$enddefinitions $end
#0
$dumpvars
b101 w#
b101 v#
b1010 u#
0t#
0s#
0r#
0q#
1p#
0o#
1n#
0m#
0l#
0k#
0j#
1i#
1h#
0g#
0f#
0e#
0d#
0c#
0b#
1a#
1`#
0_#
0^#
1]#
0\#
0[#
0Z#
1Y#
1X#
0W#
0V#
1U#
1T#
0S#
0R#
0Q#
1P#
1O#
1N#
1M#
1L#
1K#
0J#
0I#
0H#
1G#
1F#
1E#
0D#
1C#
1B#
1A#
1@#
1?#
1>#
1=#
0<#
1;#
b1000000 :#
b101 9#
b1010 8#
07#
16#
05#
14#
03#
02#
01#
00#
0/#
0.#
1-#
0,#
1+#
1*#
0)#
0(#
0'#
0&#
0%#
0$#
0##
1"#
0!#
0~"
0}"
1|"
1{"
1z"
1y"
0x"
1w"
0v"
1u"
0t"
1s"
0r"
0q"
0p"
1o"
1n"
1m"
1l"
1k"
1j"
1i"
1h"
0g"
0f"
0e"
0d"
1c"
1b"
0a"
0`"
0_"
0^"
0]"
0\"
1["
1Z"
0Y"
1X"
0W"
1V"
0U"
1T"
0S"
1R"
0Q"
0P"
0O"
0N"
b101 M"
b1010 L"
0K"
1J"
1I"
0H"
0G"
0F"
0E"
1D"
0C"
1B"
0A"
0@"
1?"
0>"
1="
1<"
0;"
1:"
09"
18"
07"
06"
15"
14"
03"
12"
01"
00"
1/"
1."
0-"
1,"
0+"
1*"
0)"
1("
0'"
1&"
0%"
1$"
0#"
0""
1!"
1~
0}
1|
0{
0z
1y
1x
0w
0v
1u
1t
1s
0r
1q
0p
1o
1n
0m
1l
0k
1j
0i
1h
1g
1f
1e
1d
1c
1b
0a
0`
1_
1^
0]
0\
1[
1Z
b1000000 Y
1X
b1000000 W
b101 V
b10 U
b101 T
b1010 S
0R
0Q
0P
1O
0N
0M
0L
0K
0J
0I
0H
0G
0F
0E
0D
0C
1B
1A
1@
0?
1>
0=
1<
b101 ;
b101 :
b1010 9
b1000000 8
b101 7
b1010 6
b101 5
b1010 4
b1000000 3
02
01
10
b1000000 /
b101 .
b10 -
b101 ,
b1010 +
b10 *
0)
b101 (
b1010 '
0&
0%
x$
0#
b1000000 "
b1000000 !
$end
#1000
0X
1#
0J"
1s#
0I"
1l#
0B"
1k#
0?"
1d#
08"
1c#
05"
1A"
b0 !
b0 Y
1\#
02"
11"
1@"
0O
1[#
0H"
0&"
1%"
17"
0+#
0B
1S#
0G"
0$"
1{
0/"
1F"
16"
1q"
0m"
b0 W
b0 :#
0{"
0@
1T#
1R#
0E"
0!"
1z
0("
1C"
0|
1#"
03"
10"
1d"
1p"
1,#
15#
0l"
0s"
0w"
1"#
04#
0j"
0t"
0*#
0z"
0F#
1J#
1N#
1Q#
0-"
0[
1]
0_
1a
0y
1""
1'"
1S"
0T"
1U"
0V"
0c"
0h"
1r"
0u"
0y"
1'#
0-#
10#
06#
1O"
0>#
0E#
b11111110 V
b11111110 w#
1I#
0L#
0M#
0P#
b0 "
b0 3
1`
0+"
0b"
1<#
0H#
00
b0 /
b0 8
11
b11111110 .
b11111110 ;
b1010 (
b1010 ,
b1010 5
b1010 7
b1010 :
b1010 T
b1010 M"
b1010 9#
b1010 v#
b1000 '
b1000 +
b1000 4
b1000 6
b1000 9
b1000 S
b1000 L"
b1000 8#
b1000 u#
#2000
0#
0s#
1X
0l#
0A"
1J"
0k#
0@"
1I"
0d#
07"
1B"
0c#
06"
1?"
0\#
01"
18"
1m"
0[#
1B
0%"
00"
15"
0G"
1f"
0N#
0S#
1@
1t"
0#"
1&"
12"
0E"
1e"
1j"
0J#
0R#
0T#
1^"
1l"
1s"
1w"
1+#
14#
0~
0*"
1$"
1/"
0-"
1]"
1c"
1h"
0C#
0G#
0K#
1E#
b111 V
b111 w#
1_
0'"
1T"
1k"
0|"
0'#
00#
0O"
0^
0`
0b
1}
1("
1)"
0+"
1\"
1b"
1g"
0;#
0<#
0=#
1D#
1H#
1M#
10
01
b111 .
b111 ;
b1000 (
b1000 ,
b1000 5
b1000 7
b1000 :
b1000 T
b1000 M"
b1000 9#
b1000 v#
b1111 '
b1111 +
b1111 4
b1111 6
b1111 9
b1111 S
b1111 L"
b1111 8#
b1111 u#
#3000
1K"
1X
1A"
0J"
1l#
1@"
0I"
1k#
0m"
17"
0B"
1d#
b0 !
b0 Y
0l"
16"
0?"
1c#
0G
0I
0]"
11"
08"
0t"
1S#
1T#
1\#
0\"
1%"
05"
02"
0s"
0w"
0"#
1N#
1[#
0/"
b0 W
b0 :#
1}"
1(#
11#
1P"
0["
1#
1#"
14"
0&"
0e"
0j"
0q"
1J#
1R#
0Z#
0("
10"
0^"
0f"
0+#
04#
1_"
0X"
1t#
0p#
1r#
1~
1{
0$"
0c"
0h"
0o"
1G#
1K#
b1111111 V
b1111111 w#
1Y#
1[
0_
1'"
0R"
0T"
1V"
1W"
1|"
1'#
10#
1O"
1>#
1m#
0n#
1o#
1&
1\
1^
1`
1x
0}
0+"
0b"
0g"
0n"
1<#
1=#
0H#
0M#
1O#
1%
12
11
b1111111 .
b1111111 ;
b10000010 (
b10000010 ,
b10000010 5
b10000010 7
b10000010 :
b10000010 T
b10000010 M"
b10000010 9#
b10000010 v#
b1 '
b1 +
b1 4
b1 6
b1 9
b1 S
b1 L"
b1 8#
b1 u#
#4000
0#
0l#
0A"
1J"
0k#
0@"
1I"
0d#
07"
1B"
0c#
06"
1?"
0\#
0R
01"
18"
0I#
0[#
00"
b1000000 W
b1000000 :#
1*#
03#
1b"
1n"
1{"
0%"
15"
0S#
0{
0F"
0!#
1m"
0t"
1["
0s#
0#"
1&"
12"
0E"
1F#
0J#
0R#
b101 !
b101 Y
0F
1H
0J
0L
0N
0P
1X
0z
0C"
1|
0d"
1i"
0p"
0,#
05#
0f"
1l"
1s"
1w"
1"#
1+#
14#
0_"
1X"
0e"
1j"
0q"
0}"
0(#
0.#
01#
07#
0P"
0t#
1p#
0r#
0""
1$"
1/"
0-"
1z"
1C#
1G#
0Q#
b101 V
b101 w#
1C
1E
0K"
0]
1_
0a
1y
0'"
1*"
1R"
0S"
1T"
0U"
0W"
1c"
1h"
1k"
1o"
0r"
1u"
1|"
0'#
1-#
00#
16#
0O"
1L#
1M#
0m#
1n#
0o#
0\
0`
1b
1!"
1("
0)"
0+"
1y"
1;#
0<#
0D#
0H#
1P#
1=
0>
0%
01
b101 .
b101 ;
b1000000 /
b1000000 8
02
0$
b101 "
b101 3
0&
b101 (
b101 ,
b101 5
b101 7
b101 :
b101 T
b101 M"
b101 9#
b101 v#
b1010 '
b1010 +
b1010 4
b1010 6
b1010 9
b1010 S
b1010 L"
b1010 8#
b1010 u#
b0 *
b0 -
b0 U
#5000
1R
0X
1#
0J"
1s#
1P
0I"
1l#
0B"
1k#
1N
0?"
1d#
08"
1c#
1L
05"
1A"
1F
1\#
02"
11"
1@"
0C
1[#
b11111110 !
b11111110 Y
0H"
0&"
1%"
17"
0+#
0B
1S#
1H
1J
0G"
0$"
1{
0/"
1F"
16"
1q"
0m"
b0 W
b0 :#
0{"
0@
1T#
1R#
0E"
0!"
1z
0("
1C"
0|
1#"
03"
10"
1d"
1p"
1,#
15#
0l"
0s"
0w"
1"#
04#
0j"
0t"
0*#
0z"
0F#
1J#
1N#
1Q#
0-"
0[
1]
0_
1a
0y
1""
1'"
1S"
0T"
1U"
0V"
0c"
0h"
1r"
0u"
0y"
1'#
0-#
10#
06#
1O"
0>#
0E#
b11111110 V
b11111110 w#
1I#
0L#
0M#
0P#
1$
b11111110 "
b11111110 3
1`
0+"
0b"
1<#
0H#
00
b0 /
b0 8
11
b11111110 .
b11111110 ;
b1010 (
b1010 ,
b1010 5
b1010 7
b1010 :
b1010 T
b1010 M"
b1010 9#
b1010 v#
b1000 '
b1000 +
b1000 4
b1000 6
b1000 9
b1000 S
b1000 L"
b1000 8#
b1000 u#
#6000
0R
0#
0s#
0P
1X
0l#
0A"
1J"
0k#
0N
0@"
1I"
0d#
07"
1B"
0c#
0L
06"
1?"
0\#
0J
1C
01"
18"
1m"
0[#
1B
b111 !
b111 Y
0%"
00"
15"
0G"
1f"
0N#
0S#
1@
1H
1t"
0#"
1&"
12"
0E"
1e"
1j"
0J#
0R#
0T#
1^"
1l"
1s"
1w"
1+#
14#
0~
0*"
1$"
1/"
0-"
1]"
1c"
1h"
0C#
0G#
0K#
1E#
b111 V
b111 w#
1_
0'"
1T"
1k"
0|"
0'#
00#
0O"
0$
b111 "
b111 3
0^
0`
0b
1}
1("
1)"
0+"
1\"
1b"
1g"
0;#
0<#
0=#
1D#
1H#
1M#
10
01
b111 .
b111 ;
b1000 (
b1000 ,
b1000 5
b1000 7
b1000 :
b1000 T
b1000 M"
b1000 9#
b1000 v#
b1111 '
b1111 +
b1111 4
b1111 6
b1111 9
b1111 S
b1111 L"
b1111 8#
b1111 u#
#7000
1R
1#
1s#
1P
0X
1A"
1l#
0J"
1@"
1J
1k#
1N
0I"
17"
0B"
1d#
16"
0?"
1c#
1L
0C
11"
08"
0H"
1S#
1T#
b11111110 !
b11111110 Y
1\#
0m"
0B
1%"
05"
02"
0G"
0w"
0"#
1N#
1H
1[#
0/"
0l"
b1000 W
b1000 :#
1}"
1(#
11#
1P"
0/#
0N"
0@
1#"
14"
0&"
0E"
0j"
0q"
1J#
1R#
0Z#
0("
0)"
10"
0]"
0,#
05#
0^"
0f"
0+#
04#
1_"
0.#
07#
1~
1{
0$"
0-"
0i"
0p"
1G#
1K#
1Y#
1[
0_
0a
1'"
1*"
0S"
0T"
1V"
1|"
1'#
1-#
10#
16#
1O"
1>#
b11111110 V
b11111110 w#
1$
b11111110 "
b11111110 3
1\
1^
1`
1x
0}
0+"
0b"
0g"
0n"
1<#
1=#
0H#
0M#
1O#
00
b1000 /
b1000 8
11
b11111110 .
b11111110 ;
b11 (
b11 ,
b11 5
b11 7
b11 :
b11 T
b11 M"
b11 9#
b11 v#
b1 '
b1 +
b1 4
b1 6
b1 9
b1 S
b1 L"
b1 8#
b1 u#
#8000
b1111111 !
b1111111 Y
b0 W
b0 :#
1C
0R
0m"
0\"
0t"
1B
0l"
0["
0s"
1@
0s#
1X
1)"
0]"
1i"
1p"
1,#
15#
0X"
0e"
1t#
0p#
1r#
b1111111 "
b1111111 3
1K"
1a
0*"
0R"
1S"
1W"
0c"
0h"
0o"
0-#
06#
b1111111 V
b1111111 w#
1m#
0n#
1o#
10
b0 /
b0 8
12
b1111111 .
b1111111 ;
1%
b10000010 (
b10000010 ,
b10000010 5
b10000010 7
b10000010 :
b10000010 T
b10000010 M"
b10000010 9#
b10000010 v#
