signals.vcd
$date
	Sun Nov  6 11:38:33 2022
$end
$version
	Icarus Verilog
$end
$timescale
	1ps
$end
$scope module testbench $end
$var wire 1 ! s_single_synth $end
$var wire 1 " s_single_model $end
$var wire 8 # s_out_synth [7:0] $end
$var wire 8 $ s_out_model [7:0] $end
$var wire 1 % s_even_synth $end
$var wire 1 & s_even_model $end
$var wire 1 ' s_carry_out_synth $end
$var wire 1 ( s_carry_out_model $end
$var wire 1 ) s_ERR_synth $end
$var wire 1 * s_ERR_model $end
$var reg 8 + s_a [7:0] $end
$var reg 8 , s_b [7:0] $end
$var reg 2 - s_op [1:0] $end
$scope module alu_model $end
$var wire 8 . i_a [7:0] $end
$var wire 8 / i_b [7:0] $end
$var wire 2 0 i_op [1:0] $end
$var wire 8 1 s_out_sub [7:0] $end
$var wire 8 2 s_out_shl [7:0] $end
$var wire 1 3 s_out_comp $end
$var wire 1 4 s_carry_sub $end
$var wire 1 5 s_ERR_shl $end
$var reg 1 * o_ERR $end
$var reg 1 ( o_carry $end
$var reg 1 & o_even $end
$var reg 8 6 o_out [7:0] $end
$var reg 1 " o_single $end
$var integer 32 7 zeros [31:0] $end
$scope module comp_model $end
$var wire 8 8 i_a [7:0] $end
$var wire 8 9 i_b [7:0] $end
$var reg 1 3 o_out $end
$upscope $end
$scope module shl_model $end
$var wire 8 : i_a [7:0] $end
$var wire 8 ; i_b [7:0] $end
$var reg 1 5 o_ERR $end
$var reg 8 < o_out [7:0] $end
$upscope $end
$scope module sub_model $end
$var wire 8 = i_a [7:0] $end
$var wire 8 > i_b [7:0] $end
$var reg 1 4 o_carry $end
$var reg 8 ? o_out [7:0] $end
$upscope $end
$scope begin $ivl_for_loop0 $end
$var integer 32 @ i [31:0] $end
$upscope $end
$upscope $end
$scope module alu_synth $end
$var wire 1 A _000_ $end
$var wire 1 B _001_ $end
$var wire 1 C _002_ $end
$var wire 1 D _003_ $end
$var wire 1 E _004_ $end
$var wire 1 F _005_ $end
$var wire 1 G _006_ $end
$var wire 1 H _007_ $end
$var wire 1 I _008_ $end
$var wire 1 J _009_ $end
$var wire 1 K _010_ $end
$var wire 1 L _011_ $end
$var wire 1 M _012_ $end
$var wire 1 N _013_ $end
$var wire 1 O _014_ $end
$var wire 1 P _015_ $end
$var wire 1 Q _016_ $end
$var wire 1 R _017_ $end
$var wire 1 S _018_ $end
$var wire 1 T _019_ $end
$var wire 1 U _020_ $end
$var wire 1 V _021_ $end
$var wire 1 W _022_ $end
$var wire 1 X _023_ $end
$var wire 1 Y _024_ $end
$var wire 1 Z _025_ $end
$var wire 1 [ _026_ $end
$var wire 1 \ _027_ $end
$var wire 1 ] _028_ $end
$var wire 1 ^ _029_ $end
$var wire 1 _ _030_ $end
$var wire 1 ` _031_ $end
$var wire 1 a _032_ $end
$var wire 1 b _033_ $end
$var wire 1 c _034_ $end
$var wire 1 d _035_ $end
$var wire 1 e _036_ $end
$var wire 1 f _037_ $end
$var wire 1 g _038_ $end
$var wire 1 h _039_ $end
$var wire 1 i _040_ $end
$var wire 1 j _041_ $end
$var wire 1 k _042_ $end
$var wire 1 l _043_ $end
$var wire 1 m _044_ $end
$var wire 1 n _045_ $end
$var wire 1 o _046_ $end
$var wire 8 p i_a [7:0] $end
$var wire 8 q i_b [7:0] $end
$var wire 2 r i_op [1:0] $end
$var wire 1 ) o_ERR $end
$var wire 1 ' o_carry $end
$var wire 1 % o_even $end
$var wire 1 ! o_single $end
$var wire 32 s zeros [31:0] $end
$var wire 8 t s_out_sub [7:0] $end
$var wire 8 u s_out_shl [7:0] $end
$var wire 1 v s_out_comp $end
$var wire 1 w s_carry_sub $end
$var wire 1 x s_ERR_shl $end
$var wire 8 y o_out [7:0] $end
$scope module comp_model $end
$var wire 1 z _000_ $end
$var wire 1 { _001_ $end
$var wire 1 | _002_ $end
$var wire 1 } _003_ $end
$var wire 1 ~ _004_ $end
$var wire 1 !" _005_ $end
$var wire 1 "" _006_ $end
$var wire 1 #" _007_ $end
$var wire 1 $" _008_ $end
$var wire 1 %" _009_ $end
$var wire 1 &" _010_ $end
$var wire 1 '" _011_ $end
$var wire 1 (" _012_ $end
$var wire 1 )" _013_ $end
$var wire 1 *" _014_ $end
$var wire 1 +" _015_ $end
$var wire 1 ," _016_ $end
$var wire 1 -" _017_ $end
$var wire 1 ." _018_ $end
$var wire 1 /" _019_ $end
$var wire 1 0" _020_ $end
$var wire 1 1" _021_ $end
$var wire 1 2" _022_ $end
$var wire 1 3" _023_ $end
$var wire 1 4" _024_ $end
$var wire 1 5" _025_ $end
$var wire 1 6" _026_ $end
$var wire 1 7" _027_ $end
$var wire 1 8" _028_ $end
$var wire 1 9" _029_ $end
$var wire 1 :" _030_ $end
$var wire 1 ;" _031_ $end
$var wire 1 <" _032_ $end
$var wire 1 =" _033_ $end
$var wire 1 >" _034_ $end
$var wire 1 ?" _035_ $end
$var wire 1 @" _036_ $end
$var wire 1 A" _037_ $end
$var wire 1 B" _038_ $end
$var wire 1 C" _039_ $end
$var wire 1 D" _040_ $end
$var wire 1 E" _041_ $end
$var wire 1 F" _042_ $end
$var wire 1 G" _043_ $end
$var wire 1 H" _044_ $end
$var wire 1 I" _045_ $end
$var wire 1 J" _046_ $end
$var wire 1 K" _047_ $end
$var wire 1 L" _048_ $end
$var wire 1 M" _049_ $end
$var wire 1 N" _050_ $end
$var wire 1 O" _051_ $end
$var wire 1 P" _052_ $end
$var wire 1 Q" _053_ $end
$var wire 1 R" _054_ $end
$var wire 1 S" _055_ $end
$var wire 1 T" _056_ $end
$var wire 1 U" _057_ $end
$var wire 1 V" _058_ $end
$var wire 1 W" _059_ $end
$var wire 1 X" _060_ $end
$var wire 1 Y" _061_ $end
$var wire 1 Z" _062_ $end
$var wire 1 [" _063_ $end
$var wire 1 \" _064_ $end
$var wire 1 ]" _065_ $end
$var wire 1 ^" _066_ $end
$var wire 1 _" _067_ $end
$var wire 1 `" _068_ $end
$var wire 1 a" _069_ $end
$var wire 1 b" _070_ $end
$var wire 1 c" _071_ $end
$var wire 1 d" _072_ $end
$var wire 1 e" _073_ $end
$var wire 1 f" _074_ $end
$var wire 1 g" _075_ $end
$var wire 1 h" _076_ $end
$var wire 1 i" _077_ $end
$var wire 1 j" _078_ $end
$var wire 1 k" _079_ $end
$var wire 8 l" i_a [7:0] $end
$var wire 8 m" i_b [7:0] $end
$var wire 1 v o_out $end
$upscope $end
$scope module shl_model $end
$var wire 1 n" _000_ $end
$var wire 1 o" _001_ $end
$var wire 1 p" _002_ $end
$var wire 1 q" _003_ $end
$var wire 1 r" _004_ $end
$var wire 1 s" _005_ $end
$var wire 1 t" _006_ $end
$var wire 1 u" _007_ $end
$var wire 1 v" _008_ $end
$var wire 1 w" _009_ $end
$var wire 1 x" _010_ $end
$var wire 1 y" _011_ $end
$var wire 1 z" _012_ $end
$var wire 1 {" _013_ $end
$var wire 1 |" _014_ $end
$var wire 1 }" _015_ $end
$var wire 1 ~" _016_ $end
$var wire 1 !# _017_ $end
$var wire 1 "# _018_ $end
$var wire 1 ## _019_ $end
$var wire 1 $# _020_ $end
$var wire 1 %# _021_ $end
$var wire 1 &# _022_ $end
$var wire 1 '# _023_ $end
$var wire 1 (# _024_ $end
$var wire 1 )# _025_ $end
$var wire 1 *# _026_ $end
$var wire 1 +# _027_ $end
$var wire 1 ,# _028_ $end
$var wire 1 -# _029_ $end
$var wire 1 .# _030_ $end
$var wire 1 /# _031_ $end
$var wire 1 0# _032_ $end
$var wire 1 1# _033_ $end
$var wire 1 2# _034_ $end
$var wire 1 3# _035_ $end
$var wire 1 4# _036_ $end
$var wire 1 5# _037_ $end
$var wire 1 6# _038_ $end
$var wire 1 7# _039_ $end
$var wire 1 8# _040_ $end
$var wire 1 9# _041_ $end
$var wire 1 :# _042_ $end
$var wire 1 ;# _043_ $end
$var wire 1 <# _044_ $end
$var wire 1 =# _045_ $end
$var wire 1 ># _046_ $end
$var wire 1 ?# _047_ $end
$var wire 1 @# _048_ $end
$var wire 1 A# _049_ $end
$var wire 1 B# _050_ $end
$var wire 1 C# _051_ $end
$var wire 1 D# _052_ $end
$var wire 1 E# _053_ $end
$var wire 1 F# _054_ $end
$var wire 1 G# _055_ $end
$var wire 1 H# _056_ $end
$var wire 1 I# _057_ $end
$var wire 1 J# _058_ $end
$var wire 1 K# _059_ $end
$var wire 1 L# _060_ $end
$var wire 1 M# _061_ $end
$var wire 1 N# _062_ $end
$var wire 1 O# _063_ $end
$var wire 1 P# _064_ $end
$var wire 1 Q# _065_ $end
$var wire 1 R# _066_ $end
$var wire 1 S# _067_ $end
$var wire 1 T# _068_ $end
$var wire 1 U# _069_ $end
$var wire 1 V# _070_ $end
$var wire 1 W# _071_ $end
$var wire 8 X# i_a [7:0] $end
$var wire 8 Y# i_b [7:0] $end
$var wire 8 Z# o_out [7:0] $end
$var wire 1 x o_ERR $end
$upscope $end
$scope module sub_model $end
$var wire 1 [# _00_ $end
$var wire 1 \# _01_ $end
$var wire 1 ]# _02_ $end
$var wire 1 ^# _03_ $end
$var wire 1 _# _04_ $end
$var wire 1 `# _05_ $end
$var wire 1 a# _06_ $end
$var wire 1 b# _07_ $end
$var wire 1 c# _08_ $end
$var wire 1 d# _09_ $end
$var wire 1 e# _10_ $end
$var wire 1 f# _11_ $end
$var wire 1 g# _12_ $end
$var wire 1 h# _13_ $end
$var wire 1 i# _14_ $end
$var wire 1 j# _15_ $end
$var wire 1 k# _16_ $end
$var wire 1 l# _17_ $end
$var wire 1 m# _18_ $end
$var wire 1 n# _19_ $end
$var wire 1 o# _20_ $end
$var wire 1 p# _21_ $end
$var wire 1 q# _22_ $end
$var wire 1 r# _23_ $end
$var wire 1 s# _24_ $end
$var wire 1 t# _25_ $end
$var wire 1 u# _26_ $end
$var wire 1 v# _27_ $end
$var wire 1 w# _28_ $end
$var wire 1 x# _29_ $end
$var wire 1 y# _30_ $end
$var wire 1 z# _31_ $end
$var wire 1 {# _32_ $end
$var wire 1 |# _33_ $end
$var wire 1 }# _34_ $end
$var wire 1 ~# _35_ $end
$var wire 1 !$ _36_ $end
$var wire 8 "$ i_a [7:0] $end
$var wire 8 #$ i_b [7:0] $end
$var wire 1 w o_carry $end
$var wire 8 $$ o_out [7:0] $end
$upscope $end
$upscope $end
$upscope $end
$enddefinitions $end
#0
$dumpvars
b101 $$
b101 #$
b1010 "$
0!$
0~#
0}#
0|#
0{#
0z#
0y#
0x#
0w#
0v#
1u#
1t#
1s#
1r#
0q#
1p#
1o#
0n#
1m#
1l#
0k#
0j#
1i#
1h#
0g#
1f#
0e#
1d#
1c#
0b#
1a#
0`#
1_#
1^#
1]#
1\#
1[#
b1000000 Z#
b101 Y#
b1010 X#
0W#
1V#
0U#
1T#
0S#
0R#
0Q#
0P#
0O#
0N#
1M#
0L#
1K#
1J#
0I#
0H#
0G#
0F#
0E#
0D#
0C#
1B#
0A#
0@#
0?#
1>#
1=#
1<#
1;#
0:#
19#
08#
17#
06#
15#
04#
03#
02#
11#
10#
1/#
1.#
1-#
1,#
1+#
1*#
0)#
0(#
0'#
0&#
1%#
1$#
0##
0"#
0!#
0~"
0}"
0|"
1{"
1z"
0y"
1x"
0w"
1v"
0u"
1t"
0s"
1r"
0q"
0p"
0o"
0n"
b101 m"
b1010 l"
0k"
1j"
1i"
0h"
0g"
0f"
0e"
1d"
0c"
1b"
0a"
0`"
1_"
0^"
1]"
1\"
0["
1Z"
0Y"
1X"
0W"
0V"
1U"
1T"
0S"
1R"
0Q"
0P"
1O"
1N"
0M"
1L"
0K"
1J"
0I"
1H"
0G"
1F"
0E"
1D"
0C"
0B"
1A"
1@"
0?"
1>"
0="
0<"
1;"
1:"
09"
08"
17"
16"
15"
04"
13"
02"
11"
10"
0/"
1."
0-"
1,"
0+"
1*"
1)"
1("
1'"
1&"
1%"
1$"
0#"
0""
1!"
0~
1}
1|
0{
1z
b1000000 y
0x
0w
1v
b1000000 u
b101 t
b0zzzz s
b10 r
b101 q
b1010 p
0o
0n
0m
0l
0k
1j
1i
0h
0g
1f
1e
0d
0c
1b
0a
1`
1_
0^
0]
0\
1[
0Z
0Y
1X
0W
0V
1U
0T
0S
0R
0Q
1P
1O
0N
0M
1L
0K
0J
0I
0H
0G
0F
1E
0D
0C
0B
1A
b1000 @
b101 ?
b101 >
b1010 =
b1000000 <
b101 ;
b1010 :
b101 9
b1010 8
b111 7
b1000000 6
05
04
13
b1000000 2
b101 1
b10 0
b101 /
b1010 .
b10 -
b101 ,
b1010 +
0*
0)
0(
0'
0&
0%
b1000000 $
b1000000 #
0"
0!
$end
#1000
1%
0j
1h
0i
0v
0f
1g
0j"
1d
0e
1w
0i"
1c
1~#
0b"
0b
1R
1}#
0_"
1|#
0X"
1a"
b0 #
b0 y
1{#
0U"
1Q"
1`"
0P
1z#
0h"
0R"
0F"
1E"
1W"
0K#
1x#
0g"
1f"
0O"
0D"
1="
1V"
13#
0/#
b0 u
b0 Z#
0=#
1w#
0e"
1c"
0H"
0A"
1<"
0>"
1C"
0S"
1P"
1&#
12#
1L#
1U#
0.#
05#
09#
1B#
0T#
0,#
06#
0J#
0<#
1v#
1q#
0M"
1{
0}
0!"
1#"
0;"
1B"
1G"
1s"
0t"
1u"
0v"
0%#
0*#
14#
07#
0;#
1G#
0M#
1P#
0V#
1o"
0c#
b11111110 t
b11111110 $$
1k#
0m#
1n#
0t#
1&
b1000 @
b1000 7
b0 $
b0 6
1~
0K"
0$#
1b#
03
b0 2
b0 <
14
b11111110 1
b11111110 ?
b1010 ,
b1010 /
b1010 9
b1010 ;
b1010 >
b1010 q
b1010 m"
b1010 Y#
b1010 #$
b1000 +
b1000 .
b1000 8
b1000 :
b1000 =
b1000 p
b1000 l"
b1000 X#
b1000 "$
#2000
0w
0~#
0}#
1v
0|#
0a"
1j"
0{#
0`"
1i"
0z#
0W"
1b"
0x#
0V"
1_"
0w#
0Q"
1X"
1/#
0v#
0P"
0E"
1U"
0g"
1(#
0u#
16#
0C"
1F"
1R"
0e"
1'#
1,#
0s#
1~"
1.#
15#
19#
1K#
1T#
0q#
0J"
0@"
1D"
1O"
0M"
1}"
1%#
1*#
0l#
1}
0G"
1t"
1-#
0>#
0G#
0P#
0o"
0n#
b1000 @
b1000 7
1&
0|
0~
0$"
1?"
1H"
1I"
0K"
1|"
1$#
1)#
0[#
0a#
0b#
b111 t
b111 $$
1m#
13
04
b111 1
b111 ?
b1000 ,
b1000 /
b1000 9
b1000 ;
b1000 >
b1000 q
b1000 m"
b1000 Y#
b1000 #$
b1111 +
b1111 .
b1111 8
b1111 :
b1111 =
b1111 p
b1111 l"
b1111 X#
b1111 "$
#3000
1w
1h
0i
1~#
0f
1g
1}#
1d
0e
1|#
0b
1c
1{#
0v
0%
0a
1z#
1a"
0j"
1j
1O
1x#
1`"
0i"
1w#
1W"
0b"
b100 #
b100 y
1v#
1V"
0_"
1\
0M
1u#
1Q"
0X"
06#
1s#
1E"
0U"
0R"
05#
09#
0B#
0O"
b100 u
b100 Z#
1?#
1H#
1Q#
1p"
1C"
1T"
0F"
0'#
0,#
03#
0H"
1P"
0~"
0(#
0K#
0T#
1!#
1q#
1@"
1="
0D"
0%#
0*#
01#
1l#
1r#
b11111111 t
b11111111 $$
0}
1!"
1G"
0t"
1v"
1>#
1G#
1P#
1o"
1n#
b1000 @
b111 7
0&
b100 $
b100 6
1~
1""
1$"
1:"
0?"
0K"
0$#
0)#
00#
1`#
1a#
1b#
0m#
03
b100 2
b100 <
14
b11111111 1
b11111111 ?
b10 ,
b10 /
b10 9
b10 ;
b10 >
b10 q
b10 m"
b10 Y#
b10 #$
b1 +
b1 .
b1 8
b1 :
b1 =
b1 p
b1 l"
b1 X#
b1 "$
#4000
0h
0d
0!
0o
0w
0n
1v
0~#
0`
0a"
1j"
0}#
0m
0_
0`"
1i"
0|#
0l
0W"
1b"
0{#
0k
1a
0c
1e
0g
1i
0V"
1_"
0z#
1^
1L
1O
1b
1R
1U
1f
1X
1[
1%
0Q"
1X"
0x#
0j
0P"
0S#
0E"
1U"
0w#
1I
0f"
0="
06#
b1000000 u
b1000000 Z#
0O#
0n"
0C"
1F"
1R"
0e"
1=#
0v#
1H
0K
0N
0Q
0T
0W
0Z
1]
0'
b101 #
b101 y
0c"
0<"
1>"
02#
0L#
0U#
15#
19#
1B#
1K#
1T#
0!#
1,#
1/#
03#
1J#
0?#
0H#
0N#
0Q#
0W#
0p"
0q#
0B"
1D"
1O"
0M"
0}"
0&#
1<#
0k#
b101 t
b101 $$
1G
0\
0{
1}
0#"
1;"
0G"
1J"
0s"
1t"
0u"
1%#
1*#
1-#
11#
04#
17#
1>#
0G#
1M#
0P#
1V#
0o"
1c#
1m#
0n#
1|
0~
0""
1A"
1H"
0I"
0K"
0|"
1$#
10#
1;#
1[#
0`#
0b#
1t#
1B
0E
04
b101 1
b101 ?
13
b1000000 2
b1000000 <
1&
b1000 @
b110 7
0(
b101 $
b101 6
b101 ,
b101 /
b101 9
b101 ;
b101 >
b101 q
b101 m"
b101 Y#
b101 #$
b1010 +
b1010 .
b1010 8
b1010 :
b1010 =
b1010 p
b1010 l"
b1010 X#
b1010 "$
b0 -
b0 0
b0 r
#5000
0[
0e
1!
1o
0R
1n
0%
0v
1'
1Z
1m
1j
0j"
1b
0c
1w
1d
0U
1h
0i
0i"
0a
1~#
1Q
0g
1l
0b"
1}#
0X
1k
0_"
0L
0_
1|#
1T
1`
0O
0X"
1a"
1{#
0U"
1Q"
1`"
1z#
1W
b11111110 #
b11111110 y
0h"
0R"
0F"
1E"
1W"
0K#
1K
0I
1x#
1N
0g"
1f"
0O"
0D"
1="
1V"
13#
0/#
b0 u
b0 Z#
0=#
0H
1w#
0e"
1c"
0H"
0A"
1<"
0>"
1C"
0S"
1P"
1&#
12#
1L#
1U#
0.#
05#
09#
1B#
0T#
0,#
06#
0J#
0<#
1v#
1q#
0M"
1{
0}
0!"
1#"
0;"
1B"
1G"
1s"
0t"
1u"
0v"
0%#
0*#
14#
07#
0;#
1G#
0M#
1P#
0V#
1o"
0c#
b11111110 t
b11111110 $$
1k#
0m#
1n#
0t#
1"
b1000 @
b1 7
0&
1(
b11111110 $
b11111110 6
1~
0K"
0$#
1b#
03
b0 2
b0 <
14
b11111110 1
b11111110 ?
b1010 ,
b1010 /
b1010 9
b1010 ;
b1010 >
b1010 q
b1010 m"
b1010 Y#
b1010 #$
b1000 +
b1000 .
b1000 8
b1000 :
b1000 =
b1000 p
b1000 l"
b1000 X#
b1000 "$
#6000
1h
1[
0l
0b
1R
0o
0'
0Z
0m
0n
0w
1d
1U
0f
0~#
0Q
0i
0}#
1X
1g
1v
0|#
0T
0e
0a"
1j"
0{#
1O
1c
0`"
1i"
0z#
0W
0a
0%
0!
0W"
1b"
0x#
1_
1j
0V"
1_"
0w#
0N
0Q"
1X"
1/#
0v#
b111 #
b111 y
0P"
0E"
1U"
0g"
1(#
0u#
1I
1]
16#
0C"
1F"
1R"
0e"
1'#
1,#
0s#
1H
1~"
1.#
15#
19#
1K#
1T#
0q#
0J"
0@"
1D"
1O"
0M"
1}"
1%#
1*#
0l#
1}
0G"
1t"
1-#
0>#
0G#
0P#
0o"
0n#
b1000 @
b101 7
0"
0(
b111 $
b111 6
0|
0~
0$"
1?"
1H"
1I"
0K"
1|"
1$#
1)#
0[#
0a#
0b#
b111 t
b111 $$
1m#
13
04
b111 1
b111 ?
b1000 ,
b1000 /
b1000 9
b1000 ;
b1000 >
b1000 q
b1000 m"
b1000 Y#
b1000 #$
b1111 +
b1111 .
b1111 8
b1111 :
b1111 =
b1111 p
b1111 l"
b1111 X#
b1111 "$
#7000
1!
1o
1n
0[
1m
1l
0R
1'
1Z
1w
0U
1~#
1Q
1h
0i
1}#
0X
1f
0g
1|#
1T
1d
0e
1{#
0O
0v
1k
1b
0c
1z#
1W
1a"
0j"
1`
0a
1x#
1`"
0%
0i"
0_
1w#
1N
1W"
0b"
1j
1v#
1V"
0_"
1u#
1Q"
0X"
0h"
b11111110 #
b11111110 y
0/#
0I
1s#
1E"
0U"
0R"
0g"
09#
0B#
1]
0O"
0.#
b1000 u
b1000 Z#
1?#
1H#
1Q#
1p"
0O#
0n"
0H
1C"
1T"
0F"
0e"
0,#
03#
0I"
0H"
1P"
0}"
0L#
0U#
0~"
0(#
0K#
0T#
1!#
0N#
0W#
1q#
1@"
1="
0D"
0M"
0+#
02#
1l#
1r#
0{
0}
1!"
1G"
1J"
0s"
0t"
1v"
1>#
1G#
1M#
1P#
1V#
1o"
b11111110 t
b11111110 $$
1n#
1"
b1000 @
b1 7
1(
b11111110 $
b11111110 6
1~
1""
1$"
1:"
0?"
0K"
0$#
0)#
00#
1`#
1a#
1b#
0m#
03
b1000 2
b1000 <
14
b11111110 1
b11111110 ?
b11 ,
b11 /
b11 9
b11 ;
b11 >
b11 q
b11 m"
b11 Y#
b11 #$
b1 +
b1 .
b1 8
b1 :
b1 =
b1 p
b1 l"
b1 X#
b1 "$
#8000
1g
1e
0%
1c
1!
1j
1a
1o
0i
1_
1h
1[
b0 u
b0 Z#
b1111111 #
b1111111 y
0/#
0|"
06#
1I
0Z
0.#
0{"
05#
1H
1I"
1v
0}"
1+#
12#
1L#
1U#
0x"
0'#
b1000 @
b1 7
1"
b1111111 $
b1111111 6
1{
0J"
1k"
0r"
1s"
1w"
0%#
0*#
01#
0M#
0V#
b1111111 t
b1111111 $$
1e#
1!$
13
b0 2
b0 <
15
b1111111 1
b1111111 ?
1x
b10000010 ,
b10000010 /
b10000010 9
b10000010 ;
b10000010 >
b10000010 q
b10000010 m"
b10000010 Y#
b10000010 #$
