Pliki_projektu/EXECS/signals.vcd
$date
	Sat Dec  3 12:04:18 2022
$end
$version
	Icarus Verilog
$end
$timescale
	1ps
$end
$scope module testbench $end
$var wire 4 ! s_status_synth [3:0] $end
$var wire 4 " s_status_model [3:0] $end
$var wire 8 # s_out_synth [7:0] $end
$var wire 8 $ s_out_model [7:0] $end
$var reg 8 % s_a [7:0] $end
$var reg 8 & s_b [7:0] $end
$var reg 1 ' s_clk $end
$var reg 2 ( s_op [1:0] $end
$var reg 1 ) s_rst $end
$scope module exe_unit_w6_model $end
$var wire 1 ' i_clk $end
$var wire 2 * i_op [1:0] $end
$var wire 1 ) i_rst $end
$var wire 8 + in_a [7:0] $end
$var wire 8 , in_b [7:0] $end
$var wire 1 - s_ovf_shl $end
$var wire 8 . s_out_sub [7:0] $end
$var wire 8 / s_out_shl [7:0] $end
$var wire 1 0 s_out_comp $end
$var wire 8 1 s_out_chg [7:0] $end
$var wire 1 2 s_carry_sub $end
$var wire 1 3 s_ERR_shl $end
$var wire 1 4 s_ERR_chg $end
$var reg 8 5 o_out [7:0] $end
$var reg 4 6 o_status [3:0] $end
$var reg 8 7 s_a [7:0] $end
$var reg 8 8 s_b [7:0] $end
$var reg 2 9 s_op [1:0] $end
$var integer 32 : zeros [31:0] $end
$scope module chg $end
$var wire 8 ; in_a [7:0] $end
$var wire 8 < in_b [7:0] $end
$var reg 1 4 o_ERR $end
$var reg 8 = o_out [7:0] $end
$upscope $end
$scope module comp $end
$var wire 8 > in_a [7:0] $end
$var wire 8 ? in_b [7:0] $end
$var reg 1 0 o_out $end
$upscope $end
$scope module shl $end
$var wire 8 @ in_a [7:0] $end
$var wire 8 A in_b [7:0] $end
$var reg 1 3 o_ERR $end
$var reg 8 B o_out [7:0] $end
$var reg 1 - o_ovf $end
$var reg 16 C s_out [15:0] $end
$upscope $end
$scope module sub $end
$var wire 8 D in_a [7:0] $end
$var wire 8 E in_b [7:0] $end
$var reg 1 2 o_carry $end
$var reg 8 F o_out [7:0] $end
$var reg 1 G s_carry $end
$var reg 7 H s_out [6:0] $end
$var reg 1 I s_sign $end
$upscope $end
$scope begin $ivl_for_loop0 $end
$var integer 32 J i [31:0] $end
$upscope $end
$upscope $end
$scope module exe_unit_w6_synth $end
$var wire 1 K _000_ $end
$var wire 1 L _001_ $end
$var wire 1 M _002_ $end
$var wire 1 N _003_ $end
$var wire 1 O _004_ $end
$var wire 1 P _005_ $end
$var wire 1 Q _006_ $end
$var wire 1 R _007_ $end
$var wire 1 S _008_ $end
$var wire 1 T _009_ $end
$var wire 1 U _010_ $end
$var wire 1 V _011_ $end
$var wire 1 W _012_ $end
$var wire 1 X _013_ $end
$var wire 1 Y _014_ $end
$var wire 1 Z _015_ $end
$var wire 1 [ _016_ $end
$var wire 1 \ _017_ $end
$var wire 1 ] _018_ $end
$var wire 1 ^ _019_ $end
$var wire 1 _ _020_ $end
$var wire 1 ` _021_ $end
$var wire 1 a _022_ $end
$var wire 1 b _023_ $end
$var wire 1 c _024_ $end
$var wire 1 d _025_ $end
$var wire 1 e _026_ $end
$var wire 1 f _027_ $end
$var wire 1 g _028_ $end
$var wire 1 h _029_ $end
$var wire 1 i _030_ $end
$var wire 1 j _031_ $end
$var wire 1 k _032_ $end
$var wire 1 l _033_ $end
$var wire 1 m _034_ $end
$var wire 1 n _035_ $end
$var wire 1 o _036_ $end
$var wire 1 p _037_ $end
$var wire 1 q _038_ $end
$var wire 1 r _039_ $end
$var wire 1 s _040_ $end
$var wire 1 t _041_ $end
$var wire 1 u _042_ $end
$var wire 1 v _043_ $end
$var wire 1 w _044_ $end
$var wire 1 x _045_ $end
$var wire 1 y _046_ $end
$var wire 1 z _047_ $end
$var wire 1 { _048_ $end
$var wire 1 | _049_ $end
$var wire 1 } _050_ $end
$var wire 1 ~ _051_ $end
$var wire 1 !" _052_ $end
$var wire 1 "" _053_ $end
$var wire 1 #" _054_ $end
$var wire 1 $" _055_ $end
$var wire 1 %" _056_ $end
$var wire 1 &" _057_ $end
$var wire 1 '" _058_ $end
$var wire 1 (" _059_ $end
$var wire 1 )" _060_ $end
$var wire 1 *" _061_ $end
$var wire 1 +" _062_ $end
$var wire 1 ," _063_ $end
$var wire 1 -" _064_ $end
$var wire 1 ." _065_ $end
$var wire 1 /" _066_ $end
$var wire 1 0" _067_ $end
$var wire 1 1" _068_ $end
$var wire 1 2" _069_ $end
$var wire 1 3" _070_ $end
$var wire 1 4" _071_ $end
$var wire 1 5" _072_ $end
$var wire 1 6" _073_ $end
$var wire 1 7" _074_ $end
$var wire 1 8" _075_ $end
$var wire 1 ' i_clk $end
$var wire 2 9" i_op [1:0] $end
$var wire 1 ) i_rst $end
$var wire 8 :" in_a [7:0] $end
$var wire 8 ;" in_b [7:0] $end
$var wire 32 <" zeros [31:0] $end
$var wire 1 =" s_ovf_shl $end
$var wire 8 >" s_out_sub [7:0] $end
$var wire 8 ?" s_out_shl [7:0] $end
$var wire 1 @" s_out_comp $end
$var wire 8 A" s_out_chg [7:0] $end
$var wire 1 B" s_carry_sub $end
$var wire 1 C" s_ERR_shl $end
$var wire 1 D" s_ERR_chg $end
$var wire 4 E" o_status [3:0] $end
$var wire 8 F" o_out [7:0] $end
$var reg 8 G" s_a [7:0] $end
$var reg 8 H" s_b [7:0] $end
$var reg 2 I" s_op [1:0] $end
$scope module chg $end
$var wire 1 J" _00_ $end
$var wire 1 K" _01_ $end
$var wire 1 L" _02_ $end
$var wire 1 M" _03_ $end
$var wire 1 N" _04_ $end
$var wire 1 O" _05_ $end
$var wire 1 P" _06_ $end
$var wire 1 Q" _07_ $end
$var wire 1 R" _08_ $end
$var wire 1 S" _09_ $end
$var wire 1 T" _10_ $end
$var wire 1 U" _11_ $end
$var wire 1 V" _12_ $end
$var wire 1 W" _13_ $end
$var wire 1 X" _14_ $end
$var wire 1 Y" _15_ $end
$var wire 1 Z" _16_ $end
$var wire 1 [" _17_ $end
$var wire 1 \" _18_ $end
$var wire 1 ]" _19_ $end
$var wire 1 ^" _20_ $end
$var wire 1 _" _21_ $end
$var wire 1 `" _22_ $end
$var wire 1 a" _23_ $end
$var wire 1 b" _24_ $end
$var wire 1 c" _25_ $end
$var wire 1 d" _26_ $end
$var wire 1 e" _27_ $end
$var wire 1 f" _28_ $end
$var wire 1 g" _29_ $end
$var wire 1 h" _30_ $end
$var wire 8 i" in_a [7:0] $end
$var wire 8 j" in_b [7:0] $end
$var wire 1 D" o_ERR $end
$var wire 8 k" o_out [7:0] $end
$upscope $end
$scope module comp $end
$var wire 1 l" _000_ $end
$var wire 1 m" _001_ $end
$var wire 1 n" _002_ $end
$var wire 1 o" _003_ $end
$var wire 1 p" _004_ $end
$var wire 1 q" _005_ $end
$var wire 1 r" _006_ $end
$var wire 1 s" _007_ $end
$var wire 1 t" _008_ $end
$var wire 1 u" _009_ $end
$var wire 1 v" _010_ $end
$var wire 1 w" _011_ $end
$var wire 1 x" _012_ $end
$var wire 1 y" _013_ $end
$var wire 1 z" _014_ $end
$var wire 1 {" _015_ $end
$var wire 1 |" _016_ $end
$var wire 1 }" _017_ $end
$var wire 1 ~" _018_ $end
$var wire 1 !# _019_ $end
$var wire 1 "# _020_ $end
$var wire 1 ## _021_ $end
$var wire 1 $# _022_ $end
$var wire 1 %# _023_ $end
$var wire 1 &# _024_ $end
$var wire 1 '# _025_ $end
$var wire 1 (# _026_ $end
$var wire 1 )# _027_ $end
$var wire 1 *# _028_ $end
$var wire 1 +# _029_ $end
$var wire 1 ,# _030_ $end
$var wire 1 -# _031_ $end
$var wire 1 .# _032_ $end
$var wire 1 /# _033_ $end
$var wire 1 0# _034_ $end
$var wire 1 1# _035_ $end
$var wire 1 2# _036_ $end
$var wire 1 3# _037_ $end
$var wire 1 4# _038_ $end
$var wire 1 5# _039_ $end
$var wire 1 6# _040_ $end
$var wire 1 7# _041_ $end
$var wire 1 8# _042_ $end
$var wire 1 9# _043_ $end
$var wire 1 :# _044_ $end
$var wire 1 ;# _045_ $end
$var wire 1 <# _046_ $end
$var wire 1 =# _047_ $end
$var wire 1 ># _048_ $end
$var wire 1 ?# _049_ $end
$var wire 1 @# _050_ $end
$var wire 1 A# _051_ $end
$var wire 1 B# _052_ $end
$var wire 1 C# _053_ $end
$var wire 1 D# _054_ $end
$var wire 1 E# _055_ $end
$var wire 1 F# _056_ $end
$var wire 1 G# _057_ $end
$var wire 1 H# _058_ $end
$var wire 1 I# _059_ $end
$var wire 1 J# _060_ $end
$var wire 1 K# _061_ $end
$var wire 1 L# _062_ $end
$var wire 1 M# _063_ $end
$var wire 1 N# _064_ $end
$var wire 1 O# _065_ $end
$var wire 1 P# _066_ $end
$var wire 1 Q# _067_ $end
$var wire 1 R# _068_ $end
$var wire 1 S# _069_ $end
$var wire 1 T# _070_ $end
$var wire 1 U# _071_ $end
$var wire 1 V# _072_ $end
$var wire 1 W# _073_ $end
$var wire 1 X# _074_ $end
$var wire 1 Y# _075_ $end
$var wire 1 Z# _076_ $end
$var wire 1 [# _077_ $end
$var wire 1 \# _078_ $end
$var wire 1 ]# _079_ $end
$var wire 8 ^# in_a [7:0] $end
$var wire 8 _# in_b [7:0] $end
$var wire 1 @" o_out $end
$upscope $end
$scope module shl $end
$var wire 1 `# _000_ $end
$var wire 1 a# _001_ $end
$var wire 1 b# _002_ $end
$var wire 1 c# _003_ $end
$var wire 1 d# _004_ $end
$var wire 1 e# _005_ $end
$var wire 1 f# _006_ $end
$var wire 1 g# _007_ $end
$var wire 1 h# _008_ $end
$var wire 1 i# _009_ $end
$var wire 1 j# _010_ $end
$var wire 1 k# _011_ $end
$var wire 1 l# _012_ $end
$var wire 1 m# _013_ $end
$var wire 1 n# _014_ $end
$var wire 1 o# _015_ $end
$var wire 1 p# _016_ $end
$var wire 1 q# _017_ $end
$var wire 1 r# _018_ $end
$var wire 1 s# _019_ $end
$var wire 1 t# _020_ $end
$var wire 1 u# _021_ $end
$var wire 1 v# _022_ $end
$var wire 1 w# _023_ $end
$var wire 1 x# _024_ $end
$var wire 1 y# _025_ $end
$var wire 1 z# _026_ $end
$var wire 1 {# _027_ $end
$var wire 1 |# _028_ $end
$var wire 1 }# _029_ $end
$var wire 1 ~# _030_ $end
$var wire 1 !$ _031_ $end
$var wire 1 "$ _032_ $end
$var wire 1 #$ _033_ $end
$var wire 1 $$ _034_ $end
$var wire 1 %$ _035_ $end
$var wire 1 &$ _036_ $end
$var wire 1 '$ _037_ $end
$var wire 1 ($ _038_ $end
$var wire 1 )$ _039_ $end
$var wire 1 *$ _040_ $end
$var wire 1 +$ _041_ $end
$var wire 1 ,$ _042_ $end
$var wire 1 -$ _043_ $end
$var wire 1 .$ _044_ $end
$var wire 1 /$ _045_ $end
$var wire 1 0$ _046_ $end
$var wire 1 1$ _047_ $end
$var wire 1 2$ _048_ $end
$var wire 1 3$ _049_ $end
$var wire 1 4$ _050_ $end
$var wire 1 5$ _051_ $end
$var wire 1 6$ _052_ $end
$var wire 1 7$ _053_ $end
$var wire 1 8$ _054_ $end
$var wire 1 9$ _055_ $end
$var wire 1 :$ _056_ $end
$var wire 1 ;$ _057_ $end
$var wire 1 <$ _058_ $end
$var wire 1 =$ _059_ $end
$var wire 1 >$ _060_ $end
$var wire 1 ?$ _061_ $end
$var wire 1 @$ _062_ $end
$var wire 1 A$ _063_ $end
$var wire 1 B$ _064_ $end
$var wire 1 C$ _065_ $end
$var wire 1 D$ _066_ $end
$var wire 1 E$ _067_ $end
$var wire 1 F$ _068_ $end
$var wire 1 G$ _069_ $end
$var wire 1 H$ _070_ $end
$var wire 1 I$ _071_ $end
$var wire 1 J$ _072_ $end
$var wire 1 K$ _073_ $end
$var wire 1 L$ _074_ $end
$var wire 1 M$ _075_ $end
$var wire 1 N$ _076_ $end
$var wire 1 O$ _077_ $end
$var wire 1 P$ _078_ $end
$var wire 1 Q$ _079_ $end
$var wire 1 R$ _080_ $end
$var wire 1 S$ _081_ $end
$var wire 1 T$ _082_ $end
$var wire 1 U$ _083_ $end
$var wire 1 V$ _084_ $end
$var wire 1 W$ _085_ $end
$var wire 1 X$ _086_ $end
$var wire 1 Y$ _087_ $end
$var wire 1 Z$ _088_ $end
$var wire 1 [$ _089_ $end
$var wire 8 \$ in_a [7:0] $end
$var wire 8 ]$ in_b [7:0] $end
$var wire 1 =" o_ovf $end
$var wire 8 ^$ o_out [7:0] $end
$var wire 1 C" o_ERR $end
$upscope $end
$scope module sub $end
$var wire 1 _$ _000_ $end
$var wire 1 `$ _001_ $end
$var wire 1 a$ _002_ $end
$var wire 1 b$ _003_ $end
$var wire 1 c$ _004_ $end
$var wire 1 d$ _005_ $end
$var wire 1 e$ _006_ $end
$var wire 1 f$ _007_ $end
$var wire 1 g$ _008_ $end
$var wire 1 h$ _009_ $end
$var wire 1 i$ _010_ $end
$var wire 1 j$ _011_ $end
$var wire 1 k$ _012_ $end
$var wire 1 l$ _013_ $end
$var wire 1 m$ _014_ $end
$var wire 1 n$ _015_ $end
$var wire 1 o$ _016_ $end
$var wire 1 p$ _017_ $end
$var wire 1 q$ _018_ $end
$var wire 1 r$ _019_ $end
$var wire 1 s$ _020_ $end
$var wire 1 t$ _021_ $end
$var wire 1 u$ _022_ $end
$var wire 1 v$ _023_ $end
$var wire 1 w$ _024_ $end
$var wire 1 x$ _025_ $end
$var wire 1 y$ _026_ $end
$var wire 1 z$ _027_ $end
$var wire 1 {$ _028_ $end
$var wire 1 |$ _029_ $end
$var wire 1 }$ _030_ $end
$var wire 1 ~$ _031_ $end
$var wire 1 !% _032_ $end
$var wire 1 "% _033_ $end
$var wire 1 #% _034_ $end
$var wire 1 $% _035_ $end
$var wire 1 %% _036_ $end
$var wire 1 &% _037_ $end
$var wire 1 '% _038_ $end
$var wire 1 (% _039_ $end
$var wire 1 )% _040_ $end
$var wire 1 *% _041_ $end
$var wire 1 +% _042_ $end
$var wire 1 ,% _043_ $end
$var wire 1 -% _044_ $end
$var wire 1 .% _045_ $end
$var wire 1 /% _046_ $end
$var wire 1 0% _047_ $end
$var wire 1 1% _048_ $end
$var wire 1 2% _049_ $end
$var wire 1 3% _050_ $end
$var wire 1 4% _051_ $end
$var wire 1 5% _052_ $end
$var wire 1 6% _053_ $end
$var wire 1 7% _054_ $end
$var wire 1 8% _055_ $end
$var wire 1 9% _056_ $end
$var wire 1 :% _057_ $end
$var wire 1 ;% _058_ $end
$var wire 1 <% _059_ $end
$var wire 1 =% _060_ $end
$var wire 1 >% _061_ $end
$var wire 1 ?% _062_ $end
$var wire 1 @% _063_ $end
$var wire 1 A% _064_ $end
$var wire 1 B% _065_ $end
$var wire 1 C% _066_ $end
$var wire 1 D% _067_ $end
$var wire 1 E% _068_ $end
$var wire 1 F% _069_ $end
$var wire 1 G% _070_ $end
$var wire 1 H% _071_ $end
$var wire 1 I% _072_ $end
$var wire 1 J% _073_ $end
$var wire 1 K% _074_ $end
$var wire 1 L% _075_ $end
$var wire 1 M% _076_ $end
$var wire 1 N% _077_ $end
$var wire 1 O% _078_ $end
$var wire 1 P% _079_ $end
$var wire 1 Q% _080_ $end
$var wire 1 R% _081_ $end
$var wire 1 S% _082_ $end
$var wire 1 T% _083_ $end
$var wire 1 U% _084_ $end
$var wire 1 V% _085_ $end
$var wire 1 W% _086_ $end
$var wire 1 X% _087_ $end
$var wire 1 Y% _088_ $end
$var wire 1 Z% _089_ $end
$var wire 1 [% _090_ $end
$var wire 1 \% _091_ $end
$var wire 1 ]% _092_ $end
$var wire 1 ^% _093_ $end
$var wire 1 _% _094_ $end
$var wire 1 `% _095_ $end
$var wire 1 a% _096_ $end
$var wire 1 b% _097_ $end
$var wire 1 c% _098_ $end
$var wire 1 d% _099_ $end
$var wire 1 e% _100_ $end
$var wire 1 f% _101_ $end
$var wire 1 g% _102_ $end
$var wire 1 h% _103_ $end
$var wire 1 i% _104_ $end
$var wire 1 j% _105_ $end
$var wire 1 k% _106_ $end
$var wire 1 l% _107_ $end
$var wire 1 m% _108_ $end
$var wire 1 n% _109_ $end
$var wire 1 o% _110_ $end
$var wire 1 p% _111_ $end
$var wire 1 q% _112_ $end
$var wire 1 r% _113_ $end
$var wire 1 s% _114_ $end
$var wire 1 t% _115_ $end
$var wire 1 u% _116_ $end
$var wire 1 v% _117_ $end
$var wire 1 w% _118_ $end
$var wire 1 x% _119_ $end
$var wire 1 y% _120_ $end
$var wire 1 z% _121_ $end
$var wire 1 {% _122_ $end
$var wire 1 |% _123_ $end
$var wire 1 }% _124_ $end
$var wire 1 ~% _125_ $end
$var wire 1 !& _126_ $end
$var wire 1 "& _127_ $end
$var wire 1 #& _128_ $end
$var wire 1 $& _129_ $end
$var wire 1 %& _130_ $end
$var wire 1 && _131_ $end
$var wire 1 '& _132_ $end
$var wire 1 (& _133_ $end
$var wire 1 )& _134_ $end
$var wire 1 *& _135_ $end
$var wire 1 +& _136_ $end
$var wire 1 ,& _137_ $end
$var wire 1 -& _138_ $end
$var wire 1 .& _139_ $end
$var wire 1 /& _140_ $end
$var wire 1 0& _141_ $end
$var wire 1 1& _142_ $end
$var wire 1 2& _143_ $end
$var wire 1 3& _144_ $end
$var wire 1 4& _145_ $end
$var wire 8 5& in_a [7:0] $end
$var wire 8 6& in_b [7:0] $end
$var wire 1 B" o_carry $end
$var wire 1 7& s_carry $end
$var wire 1 8& s_sign $end
$var wire 7 9& s_out [6:0] $end
$var wire 8 :& o_out [7:0] $end
$upscope $end
$upscope $end
$upscope $end
$enddefinitions $end
#0
$dumpvars
bx :&
bx 9&
x8&
x7&
bx 6&
bx 5&
x4&
x3&
x2&
x1&
x0&
x/&
x.&
x-&
x,&
x+&
x*&
x)&
x(&
x'&
x&&
x%&
x$&
x#&
x"&
x!&
x~%
x}%
x|%
x{%
xz%
xy%
xx%
xw%
xv%
xu%
xt%
xs%
xr%
xq%
xp%
xo%
xn%
xm%
xl%
xk%
xj%
xi%
xh%
xg%
xf%
xe%
xd%
xc%
xb%
xa%
x`%
x_%
x^%
x]%
x\%
x[%
xZ%
xY%
xX%
xW%
xV%
xU%
xT%
xS%
xR%
xQ%
xP%
xO%
xN%
xM%
xL%
xK%
xJ%
xI%
xH%
xG%
xF%
xE%
xD%
xC%
xB%
xA%
x@%
x?%
x>%
x=%
x<%
x;%
x:%
x9%
x8%
x7%
x6%
x5%
x4%
x3%
x2%
x1%
x0%
x/%
x.%
x-%
x,%
x+%
x*%
x)%
x(%
x'%
x&%
x%%
x$%
x#%
x"%
x!%
x~$
x}$
x|$
x{$
xz$
xy$
xx$
xw$
xv$
xu$
xt$
xs$
xr$
xq$
xp$
xo$
xn$
xm$
xl$
xk$
xj$
xi$
xh$
xg$
xf$
xe$
xd$
xc$
xb$
xa$
x`$
x_$
bx ^$
bx ]$
bx \$
x[$
xZ$
xY$
xX$
xW$
xV$
xU$
xT$
xS$
xR$
xQ$
xP$
xO$
xN$
xM$
xL$
xK$
xJ$
xI$
xH$
xG$
xF$
xE$
xD$
xC$
xB$
xA$
x@$
x?$
x>$
x=$
x<$
x;$
x:$
x9$
x8$
x7$
x6$
x5$
x4$
x3$
x2$
x1$
x0$
x/$
x.$
x-$
x,$
x+$
x*$
x)$
x($
x'$
x&$
x%$
x$$
x#$
x"$
x!$
x~#
x}#
x|#
x{#
xz#
xy#
xx#
xw#
xv#
xu#
xt#
xs#
xr#
xq#
xp#
xo#
xn#
xm#
xl#
xk#
xj#
xi#
xh#
xg#
xf#
xe#
xd#
xc#
xb#
xa#
x`#
bx _#
bx ^#
x]#
x\#
x[#
xZ#
xY#
xX#
xW#
xV#
xU#
xT#
xS#
xR#
xQ#
xP#
xO#
xN#
xM#
xL#
xK#
xJ#
xI#
xH#
xG#
xF#
xE#
xD#
xC#
xB#
xA#
x@#
x?#
x>#
x=#
x<#
x;#
x:#
x9#
x8#
x7#
x6#
x5#
x4#
x3#
x2#
x1#
x0#
x/#
x.#
x-#
x,#
x+#
x*#
x)#
x(#
x'#
x&#
x%#
x$#
x##
x"#
x!#
x~"
x}"
x|"
x{"
xz"
xy"
xx"
xw"
xv"
xu"
xt"
xs"
xr"
xq"
xp"
xo"
xn"
xm"
xl"
bx k"
bx j"
bx i"
xh"
xg"
xf"
xe"
xd"
xc"
xb"
xa"
x`"
x_"
x^"
x]"
x\"
x["
xZ"
xY"
xX"
xW"
xV"
xU"
xT"
xS"
xR"
xQ"
xP"
xO"
xN"
xM"
xL"
xK"
xJ"
bx I"
bx H"
bx G"
bx F"
bx E"
xD"
xC"
xB"
bx A"
x@"
bx ?"
bx >"
x="
b0zzzz <"
b10000001 ;"
b0 :"
b11 9"
x8"
x7"
x6"
x5"
x4"
x3"
x2"
x1"
x0"
x/"
x."
x-"
x,"
x+"
x*"
x)"
x("
x'"
x&"
x%"
x$"
x#"
x""
x!"
x~
x}
x|
x{
xz
xy
xx
xw
xv
xu
xt
xs
xr
xq
xp
xo
xn
xm
xl
xk
xj
xi
xh
xg
xf
xe
xd
xc
xb
xa
x`
x_
x^
x]
x\
x[
xZ
xY
xX
xW
xV
xU
xT
xS
xR
xQ
xP
xO
xN
xM
xL
xK
b1000 J
0I
b0 H
0G
b0 F
bx E
bx D
bx C
bx B
bx A
bx @
bx ?
bx >
bx =
bx <
bx ;
b0 :
bx 9
bx 8
bx 7
b0x1x 6
bx 5
04
03
02
bx 1
00
bx /
b0 .
0-
b10000001 ,
b0 +
b11 *
1)
b11 (
0'
b10000001 &
b0 %
bx $
bx #
b0x1x "
bx !
$end
#500
0\
1V
0W
0a
1U
0T
0`
1Q
1R
0S
0_
0O
1P
0^
0N
0]
0K
08"
1M
1L
1k
1{
0}$
0&%
0/%
0?%
1a$
1i
1z
0{$
0%%
0-%
02%
0>%
14&
1@"
1v
0`$
1]#
1|%
1."
1("
17"
0\#
0u
0_$
1S#
0L$
0h#
1y%
1=%
1F%
0r
0{%
0[#
03&
1R#
0<$
0K$
0""
0g#
1x%
1<%
1E%
0n
02"
b0 #
b0 F"
0z%
0T#
1h
12&
01%
1I#
0*$
0;$
0J$
0V$
0[
0!"
0f#
1u%
17%
1;%
1B%
0/"
0-"
0'"
06"
0w%
1W#
0Q#
0^"
10&
0j$
0*%
0J#
0A%
1H#
0%$
0A$
05$
0U$
0I$
0P$
0X
0~
0e#
1t%
1,%
16%
0,"
0&"
03"
0v%
0Z#
0/&
0*#
1V#
1O#
0]"
0:%
1%&
0i$
0G#
0r$
0I%
0Y#
1C#
0$$
0?$
04$
0a#
0H$
0d#
1q%
1$%
1+%
13%
1b
0Z"
0s%
0.%
0.&
17#
1F#
0)&
1)#
1N#
0P#
0\"
0!%
0)%
09%
0H%
1x
b11 !
b11 E"
1$&
0h$
0D#
0q$
0v$
07&
0B"
0X#
1B#
0{#
0=$
0/$
0[$
09$
0F$
0T$
1p%
1#%
1D"
1Y"
0e"
b0 A"
b0 k"
0Y$
0r%
0-&
0o%
1/#
0E#
1m#
0(&
1##
0M#
1D%
0R"
1T"
0="
08&
0~$
0(%
08%
0@%
0G%
0q
0w
00"
0Y
0c
0d
01"
05"
0Z
0e
b1 9&
0n%
0A#
0g$
08#
0n$
0p$
0u$
0y$
0U"
0U#
1?#
0z#
0"$
0.$
02$
08$
0E$
0R$
0`"
0b"
1:#
1=#
1#$
0($
13$
1>$
1S$
1`#
1j%
0h%
1m%
1"%
1l%
1X"
0d"
0f"
0g"
0h"
1.#
1)$
1:$
1@$
1l#
0X$
0d%
1f%
1["
1,#
00#
15#
0b#
0`%
15%
1b%
14%
1~"
1k#
0\%
1^%
1O"
1"#
0$#
1(#
1Z%
1C%
1L#
1u#
1X%
11&
0Q"
1S"
0j#
0c$
0k$
0j
0o
0}
1|
1#"
1)"
0l
0s
1y
0%"
0+"
0'$
07$
b1 >"
b1 :&
0k%
0z$
0@#
0!$
0f$
01$
06#
0y#
0m$
0-$
0t$
0D$
0N$
0x$
04"
0|$
1'%
10%
0M"
1V"
0s"
1<#
0p#
1w#
1}#
1,$
10$
16$
0B$
0Q$
0K%
1U%
1V%
1L"
0_"
0a"
1q"
09#
1o#
0G$
0O$
1M%
1g%
0i%
1K"
0W"
0c"
1o"
0-#
12#
1n#
0W$
1c%
0e%
1J"
1m"
0+#
14#
1s#
0M$
0Z$
0c#
1_%
0a%
1y"
0}"
1%#
1t#
1[%
0]%
0N"
1w"
0!#
1'#
1r#
0Y%
1&&
1u"
1|"
0K#
1q#
0W%
1}%
1P"
1i#
0J%
0f
1p
0g
1m
1t
1$"
1*"
1t"
0;#
0&$
1L%
0T%
0e$
1r"
0>#
0~#
1N%
0!&
0"&
0#&
1p"
01#
0|#
1P%
0d$
1n"
03#
0x#
1O%
0*&
0+&
0,&
1z"
0v#
1S%
0o$
1x"
0&#
0+$
1R%
0'&
0s$
1v"
0{"
0C$
1Q%
0~%
0w$
1l"
0b$
1l$
b1000 J
b11 "
b11 6
14
b1 .
b1 F
b1 H
10
b0 C
13
1C"
b0 ?"
b0 ^$
b11 9
b10000001 8
b10000001 <
b10000001 ?
b10000001 A
b10000001 E
b0 7
b0 ;
b0 >
b0 @
b0 D
b10000001 H"
b10000001 j"
b10000001 _#
b10000001 ]$
b10000001 6&
b11 I"
b0 G"
b0 i"
b0 ^#
b0 \$
b0 5&
1'
#1000
0'
#1500
1'
#2000
0'
b1110000 &
b1110000 ,
b1110000 ;"
#2500
0;%
1J#
0,%
06%
1*#
0I#
0$&
0+%
03%
0)#
0N#
0W#
0k
1X#
0#%
0l#
0m#
0##
1M#
1/&
0O#
0V#
b1110000 9&
0i
18&
1(%
1*%
18%
1G%
1U#
1y#
1!$
1-$
11$
17$
0"%
0~"
0k#
0^%
1(&
0O"
0"#
1$#
0Z%
1)&
0L#
1P#
0u#
0X%
b11110000 >"
b11110000 :&
0@"
1c$
1k$
0'%
00%
b1000 J
1M"
1s"
1p#
0w#
0}#
0,$
00$
06$
1K%
0V%
0y"
1}"
0t#
1]%
1N"
0w"
1!#
0r#
1Y%
1'&
0u"
1K#
0q#
1W%
1~%
0]#
1J%
0l$
b11110000 .
b11110000 F
1I
b1110000 H
00
b0 /
b0 B
03
0C"
b1110000 8
b1110000 <
b1110000 ?
b1110000 A
b1110000 E
b1110000 H"
b1110000 j"
b1110000 _#
b1110000 ]$
b1110000 6&
1'
#3000
0'
#3500
1'
#4000
0'
b0 &
b0 ,
b0 ;"
b10110000 %
b10110000 +
b10110000 :"
#4500
0U
1O
0P
0M
1N
0]
0L
1K
18"
1L$
1r
1<$
1n
1*$
1;$
1V$
0\
1%$
1P$
15$
1U$
0S
0W
1b$
1%%
12%
18&
1$$
14$
1T
1R
0."
07"
1`$
0c$
0$%
07%
0=%
b10 !
b10 E"
1Z"
1[#
1{#
1/$
0?%
0S#
1_$
0a$
0b
0Y"
1T#
1z#
1.$
b10110001 #
b10110001 F"
1{%
1>%
0R#
13&
04&
0F%
1U"
0D"
0X"
1Q#
1w#
1,$
12"
1-"
16"
1l#
1m#
1z%
0|%
0P#
02&
0E%
1R"
0T"
0V"
1O#
1v#
1+$
b110000 9&
1/"
1,"
1N#
13"
1k#
1j#
1\%
0y%
1^%
1(&
0<%
1O"
1&#
0$#
0(#
0M#
1Z%
0C%
01&
0D%
1Q"
0S"
1L#
1u#
1X%
0%&
b10110000 >"
b10110000 :&
1##
0(%
0*%
08%
0G%
1'%
10%
b100 :
b1000 J
b10 "
b10 6
b10110001 $
b10110001 5
1y"
0}"
0%#
1t#
0i#
0[%
0]%
0N"
1w"
0!#
0'#
1r#
0Y%
0&&
0P"
1u"
0K#
1q#
0W%
0~%
0z"
1~"
0S%
0x"
1"#
0R%
b10110001 A"
b10110001 k"
0l"
0k$
1l$
04
b10110001 1
b10110001 =
b10110000 .
b10110000 F
b110000 H
b10110000 /
b10110000 B
b110000 C
b10110000 ?"
b10110000 ^$
b0 8
b0 <
b0 ?
b0 A
b0 E
b10110000 7
b10110000 ;
b10110000 >
b10110000 @
b10110000 D
b0 H"
b0 j"
b0 _#
b0 ]$
b0 6&
b10110000 G"
b10110000 i"
b10110000 ^#
b10110000 \$
b10110000 5&
1'
#5000
0'
#5500
1'
#6000
0'
b1 &
b1 ,
b1 ;"
b11111100 %
b11111100 +
b11111100 :"
#6500
1a
1`
1_
0W
0L
1^
0U
0{
1="
1]
1R
0S
0r
0z
1h#
b1000 !
b1000 E"
0N
1M
0P
0n
0v
1g#
1\
0("
1u
1K$
1f#
0H#
1J$
1I$
1e#
1&%
1s%
1""
0C#
1G#
1w%
b11111110 #
b11111110 F"
0Z"
0?$
1a#
0A$
b11111000 ?"
b11111000 ^$
1H$
1d#
1$&
1$%
1[
1r%
1-&
0t%
1!"
07#
1D#
1v%
0x%
1'"
1Y"
1^"
0=$
1[$
09$
1F$
1T$
1}$
1#%
1X
1d%
0q%
04%
1~
05#
18#
1`%
0u%
05%
13%
1&"
0X#
b1111101 9&
0U"
1X"
1]"
0U#
0!$
07$
0"$
12$
08$
1E$
1R$
1{$
1"%
02#
0c%
04#
16#
0_%
1.&
0|"
1N$
0}%
1%&
b11111101 >"
b11111101 :&
b1000 "
b1000 6
b1000 J
b1 :
b11111110 $
b11111110 5
0M"
1V"
1\"
0s"
0p#
1}#
10$
16$
1B$
1Q$
0K%
1V%
0p"
11#
1|#
0P%
0n"
13#
1x#
0O%
1*&
1,&
b11111110 A"
b11111110 k"
0v"
1{"
1C$
0Q%
1~%
b11111110 1
b11111110 =
b11111101 .
b11111101 F
b1111101 H
1-
b11111000 /
b11111000 B
b11111000 C
b1 8
b1 <
b1 ?
b1 A
b1 E
b11111100 7
b11111100 ;
b11111100 >
b11111100 @
b11111100 D
b1 H"
b1 j"
b1 _#
b1 ]$
b1 6&
b11111100 G"
b11111100 i"
b11111100 ^#
b11111100 \$
b11111100 5&
1'
