Pliki_projektu/signals.vcd
$date
	Sat Nov 12 01:18:19 2022
$end
$version
	Icarus Verilog
$end
$timescale
	1ps
$end
$scope module testbench $end
$var wire 4 ! s_status_synth [3:0] $end
$var wire 4 " s_status_model [3:0] $end
$var wire 8 # s_out_synth [7:0] $end
$var wire 8 $ s_out_model [7:0] $end
$var reg 8 % s_a [7:0] $end
$var reg 8 & s_b [7:0] $end
$var reg 1 ' s_clk $end
$var reg 2 ( s_op [1:0] $end
$var reg 1 ) s_rst $end
$scope module alu_model $end
$var wire 8 * i_a [7:0] $end
$var wire 8 + i_b [7:0] $end
$var wire 1 ' i_clk $end
$var wire 2 , i_op [1:0] $end
$var wire 1 ) i_rst $end
$var wire 1 - s_ovf_shl $end
$var wire 8 . s_out_sub [7:0] $end
$var wire 8 / s_out_shl [7:0] $end
$var wire 1 0 s_out_comp $end
$var wire 8 1 s_out_chg [7:0] $end
$var wire 1 2 s_carry_sub $end
$var wire 1 3 s_ERR_shl $end
$var wire 1 4 s_ERR_chg $end
$var reg 8 5 o_out [7:0] $end
$var reg 4 6 o_status [3:0] $end
$var integer 32 7 zeros [31:0] $end
$scope module chg $end
$var wire 8 8 i_a [7:0] $end
$var wire 8 9 i_b [7:0] $end
$var wire 1 ' i_clk $end
$var wire 1 ) i_rst $end
$var reg 1 4 o_ERR $end
$var reg 8 : o_out [7:0] $end
$upscope $end
$scope module comp $end
$var wire 8 ; i_a [7:0] $end
$var wire 8 < i_b [7:0] $end
$var wire 1 ' i_clk $end
$var wire 1 ) i_rst $end
$var reg 1 0 o_out $end
$upscope $end
$scope module shl $end
$var wire 8 = i_a [7:0] $end
$var wire 8 > i_b [7:0] $end
$var wire 1 ' i_clk $end
$var wire 1 ) i_rst $end
$var reg 1 3 o_ERR $end
$var reg 8 ? o_out [7:0] $end
$var reg 1 - o_ovf $end
$var reg 16 @ s_out [15:0] $end
$upscope $end
$scope module sub $end
$var wire 8 A i_a [7:0] $end
$var wire 8 B i_b [7:0] $end
$var wire 1 ' i_clk $end
$var wire 1 ) i_rst $end
$var reg 1 2 o_carry $end
$var reg 8 C o_out [7:0] $end
$var reg 1 D s_carry $end
$var reg 7 E s_out [6:0] $end
$var reg 1 F s_sign $end
$upscope $end
$scope begin $ivl_for_loop0 $end
$var integer 32 G i [31:0] $end
$upscope $end
$upscope $end
$scope module alu_synth $end
$var wire 1 H _000_ $end
$var wire 1 I _001_ $end
$var wire 1 J _002_ $end
$var wire 1 K _003_ $end
$var wire 1 L _004_ $end
$var wire 1 M _005_ $end
$var wire 1 N _006_ $end
$var wire 1 O _007_ $end
$var wire 1 P _008_ $end
$var wire 1 Q _009_ $end
$var wire 1 R _010_ $end
$var wire 1 S _011_ $end
$var wire 1 T _012_ $end
$var wire 1 U _013_ $end
$var wire 1 V _014_ $end
$var wire 1 W _015_ $end
$var wire 1 X _016_ $end
$var wire 1 Y _017_ $end
$var wire 1 Z _018_ $end
$var wire 1 [ _019_ $end
$var wire 1 \ _020_ $end
$var wire 1 ] _021_ $end
$var wire 1 ^ _022_ $end
$var wire 1 _ _023_ $end
$var wire 1 ` _024_ $end
$var wire 1 a _025_ $end
$var wire 1 b _026_ $end
$var wire 1 c _027_ $end
$var wire 1 d _028_ $end
$var wire 1 e _029_ $end
$var wire 1 f _030_ $end
$var wire 1 g _031_ $end
$var wire 1 h _032_ $end
$var wire 1 i _033_ $end
$var wire 1 j _034_ $end
$var wire 1 k _035_ $end
$var wire 1 l _036_ $end
$var wire 1 m _037_ $end
$var wire 1 n _038_ $end
$var wire 1 o _039_ $end
$var wire 1 p _040_ $end
$var wire 1 q _041_ $end
$var wire 1 r _042_ $end
$var wire 1 s _043_ $end
$var wire 1 t _044_ $end
$var wire 1 u _045_ $end
$var wire 1 v _046_ $end
$var wire 1 w _047_ $end
$var wire 1 x _048_ $end
$var wire 1 y _049_ $end
$var wire 1 z _050_ $end
$var wire 1 { _051_ $end
$var wire 1 | _052_ $end
$var wire 1 } _053_ $end
$var wire 1 ~ _054_ $end
$var wire 1 !" _055_ $end
$var wire 1 "" _056_ $end
$var wire 1 #" _057_ $end
$var wire 1 $" _058_ $end
$var wire 1 %" _059_ $end
$var wire 1 &" _060_ $end
$var wire 1 '" _061_ $end
$var wire 1 (" _063_ $end
$var wire 8 )" i_a [7:0] $end
$var wire 8 *" i_b [7:0] $end
$var wire 1 ' i_clk $end
$var wire 2 +" i_op [1:0] $end
$var wire 1 ) i_rst $end
$var wire 1 ," s_ovf_shl $end
$var wire 8 -" s_out_sub [7:0] $end
$var wire 8 ." s_out_shl [7:0] $end
$var wire 1 /" s_out_comp $end
$var wire 8 0" s_out_chg [7:0] $end
$var wire 1 1" s_carry_sub $end
$var wire 1 2" s_ERR_shl $end
$var wire 1 3" s_ERR_chg $end
$var wire 4 4" o_status [3:0] $end
$var wire 8 5" _062_ [7:0] $end
$var reg 8 6" o_out [7:0] $end
$var reg 1 7" \o_status_reg[0] $end
$var reg 1 8" \o_status_reg[1] $end
$var reg 1 9" \o_status_reg[2] $end
$scope module chg $end
$var wire 1 :" _000_ $end
$var wire 1 ;" _001_ $end
$var wire 1 <" _002_ $end
$var wire 1 =" _003_ $end
$var wire 1 >" _004_ $end
$var wire 1 ?" _005_ $end
$var wire 1 @" _006_ $end
$var wire 1 A" _007_ $end
$var wire 1 B" _008_ $end
$var wire 1 C" _009_ $end
$var wire 1 D" _010_ $end
$var wire 1 E" _011_ $end
$var wire 1 F" _012_ $end
$var wire 1 G" _013_ $end
$var wire 1 H" _014_ $end
$var wire 1 I" _015_ $end
$var wire 1 J" _016_ $end
$var wire 1 K" _017_ $end
$var wire 1 L" _018_ $end
$var wire 1 M" _019_ $end
$var wire 1 N" _020_ $end
$var wire 1 O" _021_ $end
$var wire 1 P" _022_ $end
$var wire 1 Q" _023_ $end
$var wire 1 R" _024_ $end
$var wire 1 S" _025_ $end
$var wire 1 T" _026_ $end
$var wire 1 U" _027_ $end
$var wire 1 V" _028_ $end
$var wire 1 W" _029_ $end
$var wire 1 X" _030_ $end
$var wire 1 Y" _031_ $end
$var wire 1 Z" _032_ $end
$var wire 1 [" _033_ $end
$var wire 1 \" _034_ $end
$var wire 1 ]" _035_ $end
$var wire 1 ^" _036_ $end
$var wire 1 _" _037_ $end
$var wire 1 `" _038_ $end
$var wire 1 a" _039_ $end
$var wire 1 b" _040_ $end
$var wire 1 c" _041_ $end
$var wire 1 d" _042_ $end
$var wire 1 e" _043_ $end
$var wire 1 f" _044_ $end
$var wire 1 g" _045_ $end
$var wire 1 h" _046_ $end
$var wire 1 i" _047_ $end
$var wire 1 j" _048_ $end
$var wire 1 k" _049_ $end
$var wire 1 l" _050_ $end
$var wire 1 m" _051_ $end
$var wire 1 n" _052_ $end
$var wire 1 o" _053_ $end
$var wire 1 p" _054_ $end
$var wire 1 q" _055_ $end
$var wire 1 r" _056_ $end
$var wire 1 s" _057_ $end
$var wire 1 t" _058_ $end
$var wire 1 u" _059_ $end
$var wire 1 v" _060_ $end
$var wire 1 w" _061_ $end
$var wire 1 x" _062_ $end
$var wire 1 y" _063_ $end
$var wire 1 z" _064_ $end
$var wire 1 {" _065_ $end
$var wire 1 |" _066_ $end
$var wire 1 }" _067_ $end
$var wire 1 ~" _068_ $end
$var wire 1 !# _069_ $end
$var wire 1 "# _070_ $end
$var wire 1 ## _071_ $end
$var wire 1 $# _072_ $end
$var wire 1 %# _073_ $end
$var wire 1 &# _074_ $end
$var wire 8 '# i_a [7:0] $end
$var wire 8 (# i_b [7:0] $end
$var wire 1 ' i_clk $end
$var wire 1 ) i_rst $end
$var wire 1 3" o_ERR $end
$var wire 8 )# o_out [7:0] $end
$upscope $end
$scope module comp $end
$var wire 1 *# _000_ $end
$var wire 1 +# _001_ $end
$var wire 1 ,# _002_ $end
$var wire 1 -# _003_ $end
$var wire 1 .# _004_ $end
$var wire 1 /# _005_ $end
$var wire 1 0# _006_ $end
$var wire 1 1# _007_ $end
$var wire 1 2# _008_ $end
$var wire 1 3# _009_ $end
$var wire 1 4# _010_ $end
$var wire 1 5# _011_ $end
$var wire 1 6# _012_ $end
$var wire 1 7# _013_ $end
$var wire 1 8# _014_ $end
$var wire 1 9# _015_ $end
$var wire 1 :# _016_ $end
$var wire 1 ;# _017_ $end
$var wire 1 <# _018_ $end
$var wire 1 =# _019_ $end
$var wire 1 ># _020_ $end
$var wire 1 ?# _021_ $end
$var wire 1 @# _022_ $end
$var wire 1 A# _023_ $end
$var wire 1 B# _024_ $end
$var wire 1 C# _025_ $end
$var wire 1 D# _026_ $end
$var wire 1 E# _027_ $end
$var wire 1 F# _028_ $end
$var wire 1 G# _029_ $end
$var wire 1 H# _030_ $end
$var wire 1 I# _031_ $end
$var wire 1 J# _032_ $end
$var wire 1 K# _033_ $end
$var wire 1 L# _034_ $end
$var wire 1 M# _035_ $end
$var wire 1 N# _036_ $end
$var wire 1 O# _037_ $end
$var wire 1 P# _038_ $end
$var wire 1 Q# _039_ $end
$var wire 1 R# _040_ $end
$var wire 1 S# _041_ $end
$var wire 1 T# _042_ $end
$var wire 1 U# _043_ $end
$var wire 1 V# _044_ $end
$var wire 1 W# _045_ $end
$var wire 1 X# _046_ $end
$var wire 1 Y# _047_ $end
$var wire 1 Z# _048_ $end
$var wire 1 [# _049_ $end
$var wire 1 \# _050_ $end
$var wire 1 ]# _051_ $end
$var wire 1 ^# _052_ $end
$var wire 1 _# _053_ $end
$var wire 1 `# _054_ $end
$var wire 1 a# _055_ $end
$var wire 1 b# _056_ $end
$var wire 1 c# _057_ $end
$var wire 1 d# _058_ $end
$var wire 1 e# _059_ $end
$var wire 1 f# _060_ $end
$var wire 1 g# _061_ $end
$var wire 1 h# _062_ $end
$var wire 1 i# _063_ $end
$var wire 1 j# _064_ $end
$var wire 1 k# _065_ $end
$var wire 1 l# _066_ $end
$var wire 1 m# _067_ $end
$var wire 1 n# _068_ $end
$var wire 1 o# _069_ $end
$var wire 1 p# _070_ $end
$var wire 1 q# _071_ $end
$var wire 1 r# _072_ $end
$var wire 1 s# _073_ $end
$var wire 1 t# _074_ $end
$var wire 1 u# _075_ $end
$var wire 1 v# _076_ $end
$var wire 1 w# _077_ $end
$var wire 1 x# _078_ $end
$var wire 1 y# _079_ $end
$var wire 8 z# i_a [7:0] $end
$var wire 8 {# i_b [7:0] $end
$var wire 1 ' i_clk $end
$var wire 1 ) i_rst $end
$var wire 1 /" o_out $end
$upscope $end
$scope module shl $end
$var wire 1 |# _000_ $end
$var wire 1 }# _001_ $end
$var wire 1 ~# _002_ $end
$var wire 1 !$ _003_ $end
$var wire 1 "$ _004_ $end
$var wire 1 #$ _005_ $end
$var wire 1 $$ _006_ $end
$var wire 1 %$ _007_ $end
$var wire 1 &$ _008_ $end
$var wire 1 '$ _009_ $end
$var wire 1 ($ _010_ $end
$var wire 1 )$ _011_ $end
$var wire 1 *$ _012_ $end
$var wire 1 +$ _013_ $end
$var wire 1 ,$ _014_ $end
$var wire 1 -$ _015_ $end
$var wire 1 .$ _016_ $end
$var wire 1 /$ _017_ $end
$var wire 1 0$ _018_ $end
$var wire 1 1$ _019_ $end
$var wire 1 2$ _020_ $end
$var wire 1 3$ _021_ $end
$var wire 1 4$ _022_ $end
$var wire 1 5$ _023_ $end
$var wire 1 6$ _024_ $end
$var wire 1 7$ _025_ $end
$var wire 1 8$ _026_ $end
$var wire 1 9$ _027_ $end
$var wire 1 :$ _028_ $end
$var wire 1 ;$ _029_ $end
$var wire 1 <$ _030_ $end
$var wire 1 =$ _031_ $end
$var wire 1 >$ _032_ $end
$var wire 1 ?$ _033_ $end
$var wire 1 @$ _034_ $end
$var wire 1 A$ _035_ $end
$var wire 1 B$ _036_ $end
$var wire 1 C$ _037_ $end
$var wire 1 D$ _038_ $end
$var wire 1 E$ _039_ $end
$var wire 1 F$ _040_ $end
$var wire 1 G$ _041_ $end
$var wire 1 H$ _042_ $end
$var wire 1 I$ _043_ $end
$var wire 1 J$ _044_ $end
$var wire 1 K$ _045_ $end
$var wire 1 L$ _046_ $end
$var wire 1 M$ _047_ $end
$var wire 1 N$ _048_ $end
$var wire 1 O$ _049_ $end
$var wire 1 P$ _050_ $end
$var wire 1 Q$ _051_ $end
$var wire 1 R$ _052_ $end
$var wire 1 S$ _053_ $end
$var wire 1 T$ _054_ $end
$var wire 1 U$ _055_ $end
$var wire 1 V$ _056_ $end
$var wire 1 W$ _057_ $end
$var wire 1 X$ _058_ $end
$var wire 1 Y$ _059_ $end
$var wire 1 Z$ _060_ $end
$var wire 1 [$ _061_ $end
$var wire 1 \$ _062_ $end
$var wire 1 ]$ _063_ $end
$var wire 1 ^$ _064_ $end
$var wire 1 _$ _065_ $end
$var wire 1 `$ _066_ $end
$var wire 1 a$ _067_ $end
$var wire 1 b$ _068_ $end
$var wire 1 c$ _069_ $end
$var wire 1 d$ _070_ $end
$var wire 1 e$ _071_ $end
$var wire 1 f$ _072_ $end
$var wire 1 g$ _073_ $end
$var wire 1 h$ _074_ $end
$var wire 1 i$ _075_ $end
$var wire 1 j$ _076_ $end
$var wire 1 k$ _077_ $end
$var wire 1 l$ _078_ $end
$var wire 1 m$ _079_ $end
$var wire 1 n$ _080_ $end
$var wire 1 o$ _081_ $end
$var wire 1 p$ _082_ $end
$var wire 1 q$ _083_ $end
$var wire 1 r$ _084_ $end
$var wire 1 s$ _085_ $end
$var wire 1 t$ _086_ $end
$var wire 1 u$ _087_ $end
$var wire 1 v$ _088_ $end
$var wire 1 w$ _089_ $end
$var wire 1 x$ _090_ $end
$var wire 8 y$ i_a [7:0] $end
$var wire 8 z$ i_b [7:0] $end
$var wire 1 ' i_clk $end
$var wire 1 ) i_rst $end
$var wire 1 ," o_ovf $end
$var wire 8 {$ o_out [7:0] $end
$var wire 1 2" o_ERR $end
$upscope $end
$scope module sub $end
$var wire 1 |$ _000_ $end
$var wire 1 }$ _001_ $end
$var wire 1 ~$ _002_ $end
$var wire 1 !% _003_ $end
$var wire 1 "% _004_ $end
$var wire 1 #% _005_ $end
$var wire 1 $% _006_ $end
$var wire 1 %% _007_ $end
$var wire 1 &% _008_ $end
$var wire 1 '% _009_ $end
$var wire 1 (% _010_ $end
$var wire 1 )% _011_ $end
$var wire 1 *% _012_ $end
$var wire 1 +% _013_ $end
$var wire 1 ,% _014_ $end
$var wire 1 -% _015_ $end
$var wire 1 .% _016_ $end
$var wire 1 /% _017_ $end
$var wire 1 0% _018_ $end
$var wire 1 1% _019_ $end
$var wire 1 2% _020_ $end
$var wire 1 3% _021_ $end
$var wire 1 4% _022_ $end
$var wire 1 5% _023_ $end
$var wire 1 6% _024_ $end
$var wire 1 7% _025_ $end
$var wire 1 8% _026_ $end
$var wire 1 9% _027_ $end
$var wire 1 :% _028_ $end
$var wire 1 ;% _029_ $end
$var wire 1 <% _030_ $end
$var wire 1 =% _031_ $end
$var wire 1 >% _032_ $end
$var wire 1 ?% _033_ $end
$var wire 1 @% _034_ $end
$var wire 1 A% _035_ $end
$var wire 1 B% _036_ $end
$var wire 1 C% _037_ $end
$var wire 1 D% _038_ $end
$var wire 1 E% _039_ $end
$var wire 1 F% _040_ $end
$var wire 1 G% _041_ $end
$var wire 1 H% _042_ $end
$var wire 1 I% _043_ $end
$var wire 1 J% _044_ $end
$var wire 1 K% _045_ $end
$var wire 1 L% _046_ $end
$var wire 1 M% _047_ $end
$var wire 1 N% _048_ $end
$var wire 1 O% _049_ $end
$var wire 1 P% _050_ $end
$var wire 1 Q% _051_ $end
$var wire 1 R% _052_ $end
$var wire 1 S% _053_ $end
$var wire 1 T% _054_ $end
$var wire 1 U% _055_ $end
$var wire 1 V% _056_ $end
$var wire 1 W% _057_ $end
$var wire 1 X% _058_ $end
$var wire 1 Y% _059_ $end
$var wire 1 Z% _060_ $end
$var wire 1 [% _061_ $end
$var wire 1 \% _062_ $end
$var wire 1 ]% _063_ $end
$var wire 1 ^% _064_ $end
$var wire 1 _% _065_ $end
$var wire 1 `% _066_ $end
$var wire 1 a% _067_ $end
$var wire 1 b% _068_ $end
$var wire 1 c% _069_ $end
$var wire 1 d% _070_ $end
$var wire 1 e% _071_ $end
$var wire 1 f% _072_ $end
$var wire 1 g% _073_ $end
$var wire 1 h% _074_ $end
$var wire 1 i% _075_ $end
$var wire 1 j% _076_ $end
$var wire 1 k% _077_ $end
$var wire 1 l% _078_ $end
$var wire 1 m% _079_ $end
$var wire 1 n% _080_ $end
$var wire 1 o% _081_ $end
$var wire 1 p% _082_ $end
$var wire 1 q% _083_ $end
$var wire 1 r% _084_ $end
$var wire 1 s% _085_ $end
$var wire 1 t% _086_ $end
$var wire 1 u% _087_ $end
$var wire 1 v% _088_ $end
$var wire 1 w% _089_ $end
$var wire 1 x% _090_ $end
$var wire 1 y% _091_ $end
$var wire 1 z% _092_ $end
$var wire 1 {% _093_ $end
$var wire 1 |% _094_ $end
$var wire 1 }% _095_ $end
$var wire 1 ~% _096_ $end
$var wire 1 !& _097_ $end
$var wire 1 "& _098_ $end
$var wire 1 #& _099_ $end
$var wire 1 $& _100_ $end
$var wire 1 %& _101_ $end
$var wire 1 && _102_ $end
$var wire 1 '& _103_ $end
$var wire 1 (& _104_ $end
$var wire 1 )& _105_ $end
$var wire 1 *& _106_ $end
$var wire 1 +& _107_ $end
$var wire 1 ,& _108_ $end
$var wire 1 -& _109_ $end
$var wire 1 .& _110_ $end
$var wire 1 /& _111_ $end
$var wire 1 0& _112_ $end
$var wire 1 1& _113_ $end
$var wire 1 2& _114_ $end
$var wire 1 3& _115_ $end
$var wire 1 4& _116_ $end
$var wire 1 5& _117_ $end
$var wire 1 6& _118_ $end
$var wire 1 7& _119_ $end
$var wire 1 8& _120_ $end
$var wire 1 9& _121_ $end
$var wire 1 :& _122_ $end
$var wire 1 ;& _123_ $end
$var wire 1 <& _124_ $end
$var wire 1 =& _125_ $end
$var wire 1 >& _126_ $end
$var wire 1 ?& _127_ $end
$var wire 1 @& _128_ $end
$var wire 1 A& _129_ $end
$var wire 1 B& _130_ $end
$var wire 1 C& _131_ $end
$var wire 1 D& _132_ $end
$var wire 1 E& _133_ $end
$var wire 1 F& _134_ $end
$var wire 1 G& _135_ $end
$var wire 1 H& _136_ $end
$var wire 1 I& _137_ $end
$var wire 1 J& _138_ $end
$var wire 1 K& _139_ $end
$var wire 1 L& _140_ $end
$var wire 1 M& _141_ $end
$var wire 1 N& _142_ $end
$var wire 1 O& _143_ $end
$var wire 1 P& _144_ $end
$var wire 8 Q& i_a [7:0] $end
$var wire 8 R& i_b [7:0] $end
$var wire 1 ' i_clk $end
$var wire 1 ) i_rst $end
$var wire 1 1" o_carry $end
$var wire 1 S& s_carry $end
$var wire 1 T& s_sign $end
$var wire 7 U& s_out [6:0] $end
$var wire 8 V& o_out [7:0] $end
$upscope $end
$upscope $end
$upscope $end
$enddefinitions $end
#0
$dumpvars
b11 V&
b11 U&
0T&
0S&
b11010101 R&
b11010010 Q&
0P&
1O&
0N&
1M&
0L&
1K&
0J&
1I&
1H&
0G&
0F&
1E&
0D&
0C&
1B&
1A&
0@&
0?&
1>&
1=&
0<&
1;&
0:&
09&
18&
07&
06&
15&
14&
03&
02&
11&
10&
0/&
1.&
0-&
1,&
0+&
1*&
0)&
1(&
0'&
1&&
0%&
0$&
1#&
0"&
1!&
1~%
0}%
0|%
1{%
1z%
0y%
0x%
1w%
0v%
1u%
0t%
1s%
0r%
1q%
1p%
0o%
1n%
1m%
0l%
0k%
1j%
0i%
0h%
0g%
1f%
1e%
1d%
0c%
0b%
0a%
1`%
0_%
0^%
0]%
1\%
0[%
1Z%
0Y%
0X%
0W%
1V%
0U%
0T%
1S%
1R%
1Q%
0P%
0O%
0N%
0M%
0L%
1K%
1J%
1I%
0H%
0G%
0F%
0E%
1D%
0C%
0B%
0A%
0@%
0?%
0>%
1=%
1<%
1;%
0:%
09%
08%
07%
06%
05%
04%
13%
12%
01%
00%
0/%
0.%
0-%
1,%
1+%
1*%
1)%
1(%
0'%
0&%
1%%
0$%
0#%
1"%
0!%
0~$
0}$
0|$
b0 {$
b11010101 z$
b11010010 y$
0x$
0w$
0v$
0u$
0t$
1s$
0r$
0q$
0p$
0o$
0n$
0m$
0l$
0k$
0j$
1i$
0h$
1g$
0f$
0e$
0d$
1c$
0b$
0a$
0`$
1_$
0^$
1]$
0\$
0[$
0Z$
1Y$
0X$
0W$
1V$
0U$
0T$
0S$
1R$
0Q$
0P$
0O$
0N$
0M$
1L$
0K$
0J$
0I$
0H$
0G$
1F$
0E$
0D$
0C$
0B$
0A$
0@$
0?$
0>$
0=$
1<$
0;$
1:$
09$
18$
07$
06$
05$
04$
03$
02$
01$
00$
0/$
0.$
0-$
0,$
0+$
0*$
0)$
0($
0'$
0&$
0%$
0$$
0#$
0"$
0!$
1~#
0}#
1|#
b11010101 {#
b11010010 z#
1y#
0x#
0w#
0v#
0u#
0t#
0s#
1r#
0q#
0p#
1o#
1n#
0m#
0l#
1k#
1j#
0i#
1h#
0g#
0f#
1e#
1d#
0c#
0b#
1a#
1`#
0_#
0^#
1]#
1\#
0[#
1Z#
0Y#
1X#
0W#
1V#
0U#
1T#
0S#
0R#
1Q#
1P#
0O#
1N#
0M#
1L#
0K#
0J#
1I#
1H#
0G#
0F#
1E#
1D#
1C#
0B#
1A#
0@#
1?#
1>#
0=#
1<#
0;#
1:#
09#
08#
07#
06#
05#
14#
13#
12#
01#
10#
1/#
0.#
1-#
1,#
0+#
0*#
b0 )#
b11010101 (#
b11010010 '#
1&#
0%#
0$#
1##
0"#
1!#
0~"
0}"
1|"
1{"
1z"
0y"
0x"
1w"
0v"
1u"
0t"
1s"
0r"
1q"
0p"
0o"
1n"
0m"
1l"
0k"
1j"
0i"
0h"
1g"
1f"
0e"
1d"
1c"
0b"
1a"
0`"
0_"
1^"
0]"
0\"
1["
1Z"
0Y"
0X"
1W"
1V"
0U"
0T"
1S"
0R"
0Q"
1P"
0O"
1N"
0M"
0L"
1K"
0J"
1I"
1H"
0G"
1F"
0E"
1D"
0C"
1B"
0A"
1@"
1?"
1>"
0="
0<"
1;"
1:"
x9"
x8"
x7"
bx 6"
b11 5"
b0xxx 4"
13"
12"
01"
b0 0"
1/"
b0 ."
b11 -"
0,"
b0 +"
b11010101 *"
b11010010 )"
0("
0'"
0&"
0%"
0$"
0#"
0""
1!"
1~
1}
1|
1{
1z
0y
0x
0w
1v
0u
1t
0s
1r
1q
0p
0o
0n
0m
1l
0k
0j
0i
0h
1g
1f
0e
0d
0c
0b
1a
1`
0_
0^
0]
1\
0[
0Z
0Y
1X
1W
1V
0U
1T
1S
0R
0Q
0P
0O
1N
0M
0L
1K
1J
1I
1H
b0 G
0F
b11 E
0D
b11 C
b11010101 B
b11010010 A
b0 @
b0 ?
b11010101 >
b11010010 =
b11010101 <
b11010010 ;
b0 :
b11010101 9
b11010010 8
b0 7
bx 6
bx 5
14
13
02
b0 1
10
b0 /
b11 .
0-
b0 ,
b11010101 +
b11010010 *
1)
b0 (
0'
b11010101 &
b11010010 %
bx $
bx #
bx "
b0xxx !
$end
#1000
07"
18"
b10 !
b10 4"
09"
b11 #
b11 6"
b110 7
b1000 G
b10 "
b10 6
b11 $
b11 5
1'
#2000
0'
#3000
b1000 G
b110 7
1'
#4000
0'
#5000
1q
0H
1L
0~
1f
1x
1s
0p
1u
18%
1E%
1T%
1N
1}
0r
0n
17%
1?%
1O%
1M
0/"
0e
0m
1T&
16%
1>%
1N%
1k
1,%
0y#
0c
1^%
0E&
1F&
15%
1:%
1M%
b10001111 5"
1w#
1P$
1%$
1+$
0!%
1i
1+%
1X
0o#
0b
1]%
0B&
1D&
0%"
1_#
1p#
1J$
1$$
1T$
1e$
1)$
15$
1*$
0~$
1h
1*%
1W
0n#
0b%
0A&
1C&
0#"
0`#
0T#
1S#
1m#
1d#
1@$
1($
14$
1'$
10$
0}$
1(%
1V
1F#
0e#
1f#
1P%
0a%
1c%
0>&
1@&
1Y%
0""
0]#
1K#
0a#
1?$
1Q$
1b$
0a$
1k$
1"$
1&$
1.$
1/$
0|$
0.&
0D#
1@#
0E#
0c#
19%
0U%
0=&
1?&
1X%
b1111 U&
1W#
0V#
1J#
0L#
1^#
1>$
1G$
1M$
1S$
1Z$
1d$
0V$
0]$
1g$
1|#
1`$
1j$
1t$
1!$
0W$
0^$
1h$
1}#
0(&
1)&
1$&
0"%
0&&
1-&
1'%
0C#
1;#
0?#
0R#
1b#
1k#
0r#
1t#
1y%
0t%
1<&
1C%
b10001111 -"
b10001111 V&
1R%
0f%
0B"
1C"
0D"
1E"
0w"
1x"
1+#
0-#
0/#
11#
17#
0I#
1U#
0X#
17$
19$
0:$
1;$
0<$
0F$
0L$
1R$
1U$
0Y$
1\$
0_$
1c$
1f$
1i$
0s$
1x$
1~#
1i%
0p%
1r%
0#&
1%&
1'&
0*&
0H&
0F"
1G"
0I"
1J"
0K"
1L"
1]"
0f"
1t"
0{"
1"#
0:"
0,#
1.#
00#
04#
16#
18#
0<#
1B#
0O#
0Y#
1h#
1q#
1h%
1k%
0m%
1o%
0q%
1s%
0z%
19&
1@%
1A%
1F%
1H%
0Q%
0e%
b0 "
b0 6
b1000 G
b11 7
b10001111 $
b10001111 5
b10001111 .
b10001111 C
1F
b1111 E
00
1'
b10011010 &
b10011010 +
b10011010 9
b10011010 <
b10011010 >
b10011010 B
b10011010 *"
b10011010 (#
b10011010 {#
b10011010 z$
b10011010 R&
b10101001 %
b10101001 *
b10101001 8
b10101001 ;
b10101001 =
b10101001 A
b10101001 )"
b10101001 '#
b10101001 z#
b10101001 y$
b10101001 Q&
#6000
0'
#7000
b10001111 #
b10001111 6"
b0 !
b0 4"
08"
b1000 G
b11 7
1'
#8000
0'
#9000
b1000 G
b11 7
1'
#10000
0q
0f
0`%
1s
0*$
0}
0p
0\%
1r
0'$
0M
0n
1[%
0H
0&$
1e
0m
0)$
1N
0%$
1c
1!%
0($
1L%
1~
0k
0$$
1b
1~$
1T%
0k$
00$
17&
0J%
1W%
0i
05$
1}$
0b%
1?%
1O%
0w#
0i$
0.$
16&
08&
0I%
0V%
0B&
b10111001 5"
0h
1L
1%"
1c#
04$
1G&
1|$
0a%
1>%
1N%
1+%
0F#
0p#
0h$
13&
14%
05&
16%
0<%
0A&
1C&
1x
1#"
0d#
1o#
0@$
0"$
1E&
1U%
1:%
1M%
1*%
1E#
0m#
0I$
0O$
0U$
0f$
12&
1"%
04&
05%
0;%
1/&
0>&
1@&
1Y%
1u
0R%
1c%
1""
1?#
0_#
1n#
0?$
0W$
1D$
b0 ."
b0 {$
0#$
0,"
0~#
0/$
1t%
0D&
00&
1)%
02%
0/"
0Q#
1D#
0k#
0S#
1b#
1T#
1`#
0H$
0N$
0T$
0e$
1"&
01&
03%
1.&
1=&
1?&
1X%
1,%
18%
1E%
0P%
0^%
b111001 U&
1Y"
1O"
1<#
0h#
0@#
0^#
1l#
0>$
0A$
1V$
1]$
1C$
1B$
0P$
0}#
0s%
1z%
09%
1&&
0-&
0,&
0'%
0x#
0N#
1C#
1j#
1K#
1R#
1]#
0F$
0L$
0R$
0c$
0!&
1+&
0<&
1T&
1O&
1%%
17%
1D%
0C%
0]%
b10111001 -"
b10111001 V&
1B"
1D"
0N"
0Z"
1-#
1/#
15#
07#
0;#
0U#
1g#
16$
07$
1:$
1<$
1=$
0J$
0\$
0x$
0+$
1g%
0i%
1l%
1p%
0y%
0%&
0'&
0G"
0H"
1I"
1K"
1M"
1f"
1m"
0t"
0"#
0?"
1*#
0.#
10#
02#
14#
0B#
1H#
1M#
1V#
0Y#
0E$
0K$
0Q$
0b$
1m%
0n%
0o%
1(&
09&
0F&
1M&
0@%
0A%
0F%
0H%
02"
b10111001 .
b10111001 C
b111001 E
03
0'
b1000000 &
b1000000 +
b1000000 9
b1000000 <
b1000000 >
b1000000 B
b1000000 *"
b1000000 (#
b1000000 {#
b1000000 z$
b1000000 R&
b111 %
b111 *
b111 8
b111 ;
b111 =
b111 A
b111 )"
b111 '#
b111 z#
b111 y$
b111 Q&
#11000
b10111001 #
b10111001 6"
b1000 G
b11 7
b10111001 $
b10111001 5
1'
#12000
0'
#13000
b1000 G
b11 7
1'
#14000
0'
